"205","sophia3216","sophia3216@126.com","http://cdn.aixifan.com/dotnet/20120923/style/image/avatar.jpg",,"1","2114-01-01 00:00:00","0","0","1f94edd552fee17e89389971182ef092",,"1","2","0","0","0","5003",,"1","0","0","0","0","2016-09-01 00:00:00",,"1","1","0","0","0","0","0","1","0",,"0","0"
"206","123","acfun@otokaze.cn","http://cdn.aixifan.com/dotnet/artemis/u/cms/www/201610/10162512jwmw3zxw.jpg","prpr","0","2015-06-17 00:00:00","0","1","f48f4437326de38c8de9c1ee84fe2802","Ju3LoleyrwDUC2m9COWNCbnEZvb81pMzcOaHXK9FRdwjmm8LNccQFtAqGxhWGRmkWTH2K5iItqz5owhPHDA8SKCdKTswfesLgnaiew97brUSQEyrJ5v1TydmnXZ4wQPi","1","3","0","0","1","5462",,"1","0","2","0","0","2017-09-01 00:00:00","17621181185","1","1","1","1","1","1","0","1","0",,"0","0"
"207","千云ン霜影","jiuzhoukunlun@163.com","http://cdn.aixifan.com/dotnet/20120923/style/image/avatar.jpg",,"1","2114-01-01 00:00:00","0","0","cc8ea77773b52a974eeaa7ef796d523e",,"1","2","0","0","0","5000",,"1","0","0","0","0","2000-01-01 00:00:00",,"1","1","0","0","0","0","0","1","0",,"0","0"
"208","♀ˇ汐茕","candylangi@126.com","http://cdn.aixifan.com/dotnet/20120923/style/image/avatar.jpg",,"1","2114-01-01 00:00:00","0","0","e96cf2676a06c90b8f64357adc4cfd4d",,"1","2","0","0","0","5000",,"1","0","0","0","0","2000-01-01 00:00:00",,"1","1","0","0","0","0","0","1","0",,"0","0"
"209","Initial-D","kuangyudong@yahoo.com.cn","http://cdn.aixifan.com/dotnet/20120923/style/image/avatar.jpg",,"1","2114-01-01 00:00:00","0","0","a688a47ac73fb58ce3828bcb184cb157",,"1","2","0","0","0","5000",,"1","0","0","0","0","2000-01-01 00:00:00",,"1","1","0","0","0","0","0","1","0",,"0","0"
"210","jacek","nba211136@sina.comn","http://cdn.aixifan.com/dotnet/20120923/style/image/avatar.jpg",,"1","2114-01-01 00:00:00","0","0","570ca79f0334bd801af23dd6020c6d99",,"1","2","0","0","0","5000",,"1","0","0","0","0","2000-01-01 00:00:00",,"1","1","0","0","0","0","0","1","0",,"0","0"
"211","＊＿莎兒","258493943@qq.com","http://cdn.aixifan.com/dotnet/20120923/style/image/avatar.jpg",,"1","2114-01-01 00:00:00","0","0","22ee9e321160fc80af820012bde4bef6",,"1","2","0","0","0","5000",,"1","0","0","0","0","2000-01-01 00:00:00",,"1","1","0","0","0","0","0","1","0",,"0","0"
"212","月背面的脸","370405514@mail.qq.com","http://cdn.aixifan.com/dotnet/20120923/style/image/avatar.jpg",,"1","2114-01-01 00:00:00","0","0","65a131a577b94a6e615251f911eb4b8a",,"1","2","0","0","0","5000",,"1","0","0","0","0","2000-01-01 00:00:00",,"1","1","0","0","0","0","0","1","0",,"0","0"
"213","嘟嘟嘟","569863790@qq.com","http://cdn.aixifan.com/dotnet/20120923/style/image/avatar.jpg",,"0","2012-02-20 00:00:00","0","0","f183d91b326c312e31f45109c62e1420",,"1","3","0","0","0","5000",,"1","0","0","0","0","2016-09-01 00:00:00",,"1","1","0","0","0","0","0","1","0",,"0","0"
"214","枫極","512493486@qq.com","http://cdn.aixifan.com/dotnet/artemis/u/cms/www/201405/27123320muhg.jpg","不以张扬分高下 赘语不言方为格","0","2012-02-20 00:00:00","0","1","8ff296c5d2b8c32a3f486b0f1a73d7a4","CnNYtTqCIIoxLgqr8yvBxCeQhQKskQrJ02UcFdICKWTOvIsq2IoDtjsOIkM7hG43kJYnlJzS6TZJ2mOe2pTcyIozMFpXIiPC3jSmk1bykEuTioqSrKuc9IJLfobOFxFn","1","4","0","0","0","13057",,"1","0","0","0","43","2017-11-01 00:00:00","13636906665","1","1","1","1","0","18","0","1","0",,"0","0"
"215","炎龙天翔","bin323323@163.com","http://cdn.aixifan.com/dotnet/20120923/style/image/avatar.jpg",,"1","2114-01-01 00:00:00","0","0","d1360aa7ddd94f63de38a5624723ad05",,"1","2","0","0","0","5000",,"1","0","0","0","0","2000-01-01 00:00:00",,"1","1","0","0","0","0","0","1","0",,"0","0"
"216","苦参","27917601@163.COM","http://cdn.aixifan.com/dotnet/20120923/style/image/avatar.jpg",,"1","2114-01-01 00:00:00","0","0","4297f44b13955235245b2497399d7a93",,"1","2","0","0","0","5000",,"1","0","0","0","0","2000-01-01 00:00:00",,"1","1","0","0","0","0","0","1","0",,"0","0"
"217","一一","wyx4606@163.com","http://cdn.aixifan.com/dotnet/artemis/u/cms/www/201605/0612305025ikzh5c.jpg",,"0","2012-02-20 00:00:00","0","1","5a2168cc1d4ffd106027aee78985e642",,"1","3","0","0","0","5012",,"1","0","0","0","0","2017-04-01 00:00:00",,"1","1","0","1","0","0","0","1","0",,"0","0"
"218","lz","lzisc_fe@yahoo.com.cn","http://cdn.aixifan.com/dotnet/20120923/style/image/avatar.jpg",,"1","2114-01-01 00:00:00","0","0","77efa3205930e798f018aeb086465560",,"1","2","0","0","0","5003",,"1","0","0","0","0","2000-01-01 00:00:00",,"1","1","0","0","0","0","0","1","0",,"0","0"
"219","jiji","wangyuhuijiji@hotmail.com","http://cdn.aixifan.com/dotnet/20120923/style/image/avatar.jpg",,"1","2114-01-01 00:00:00","0","0","29a316a474b40590cddc05b6720e2bdf",,"1","2","0","0","0","5000",,"1","0","0","0","0","2000-01-01 00:00:00",,"1","1","0","0","0","0","0","1","0",,"0","0"
"220","地狱漫步","mxjxzj@21cn.com","http://cdn.aixifan.com/dotnet/20120923/style/image/avatar.jpg",,"1","2114-01-01 00:00:00","0","0","26f9732ba04eadeefacabe8ad85ecf6d",,"1","2","0","0","0","5000",,"1","0","0","0","0","2000-01-01 00:00:00",,"1","1","0","0","0","0","0","1","0",,"0","0"
"221","夜枫メ天醉","yftzx@126.com","http://cdn.aixifan.com/dotnet/20120923/style/image/avatar.jpg",,"1","2114-01-01 00:00:00","0","0","5a45084089283bee33aaf4294a7c3c05",,"1","2","0","0","0","5000",,"1","0","0","0","0","2000-01-01 00:00:00",,"1","1","0","0","0","0","0","1","0",,"0","0"
"222","sunny","aaa26@163.com","http://cdn.aixifan.com/dotnet/20120923/style/image/avatar.jpg",,"1","2114-01-01 00:00:00","0","0","8f651f4b3b599cb5c6fc49cba706dfd2",,"1","2","0","0","0","5000",,"1","0","0","0","0","2000-01-01 00:00:00",,"1","1","0","0","0","0","0","1","0",,"0","0"
"223","wu ","qqqq4560@tom.com","http://cdn.aixifan.com/dotnet/20120923/style/image/avatar.jpg",,"0","2012-02-20 00:00:00","0","1","5a2168cc1d4ffd106027aee78985e642",,"1","3","0","1","0","5059",,"1","0","0","0","5","2017-04-01 00:00:00",,"1","1","0","1","0","0","0","1","0",,"0","0"
"224","djsk","JDKJDK@122.com","http://cdn.aixifan.com/dotnet/20120923/style/image/avatar.jpg",,"1","2114-01-01 00:00:00","0","0","36d04a9d74392c727b1a9bf97a7bcbac",,"1","2","0","0","0","5000",,"1","0","0","0","0","2000-01-01 00:00:00",,"1","1","0","0","0","0","0","1","0",,"0","0"
"225","yayaya","hwg147@sina.com","http://cdn.aixifan.com/dotnet/20120923/style/image/avatar.jpg",,"1","2114-01-01 00:00:00","0","0","141062d4f88aa72a8c4cd11a82b34f73",,"1","2","0","0","0","5000",,"1","0","0","0","0","2000-01-01 00:00:00",,"1","1","0","0","0","0","0","1","0",,"0","0"
"226","⒈┆汏の佡..","aries2478@qq.com","http://cdn.aixifan.com/dotnet/20120923/style/image/avatar.jpg",,"1","2114-01-01 00:00:00","0","0","a29da88f4a8961633a6a65163c4b10d2",,"1","2","0","0","0","5000",,"1","0","0","0","0","2000-01-01 00:00:00",,"1","1","0","0","0","0","0","1","0",,"0","0"
"227","″.[猪宝]","cpn5203344@163.com","http://cdn.aixifan.com/dotnet/20120923/style/image/avatar.jpg",,"1","2114-01-01 00:00:00","0","0","c43a9ced0054b2eb9f0ec8de5f716822",,"1","2","0","0","0","5000",,"1","0","0","0","0","2000-01-01 00:00:00",,"1","1","0","0","0","0","0","1","0",,"0","0"
"228","神+脱轨","5820060@163.com","http://cdn.aixifan.com/dotnet/20120923/style/image/avatar.jpg",,"1","2114-01-01 00:00:00","0","0","a03f277d4420dfa4c8a6429edc21a80a",,"1","2","0","0","0","5000",,"1","0","0","0","0","2000-01-01 00:00:00",,"1","1","0","0","0","0","0","1","0",,"0","0"
"229","花妖","hasu@grr.la","http://cdn.aixifan.com/dotnet/20120923/style/image/avatar.jpg",,"1","2114-01-01 00:00:00","0","1","834443005d9706df3a9e093fbcfc0510","xlvFI8JtFcqC6a5uFqcGEiSK8dwl2RWusQnNypjxJkMdMrelHEzgy0t2UZheioxDdH6j5tJ0xoWx8pN04klWP6q7yZ0HcqhZIKA6dXpoMX5mXkTg1n90u5VMsCFRy2Hq","1","2","0","0","0","5000",,"1","0","0","0","0","2016-09-01 00:00:00",,"1","1","0","1","0","0","0","1","0",,"0","0"
"230","安魂彡女莁╅","anhunnvwu@yahoo.com.cn","http://cdn.aixifan.com/dotnet/20120923/style/image/avatar.jpg",,"1","2114-01-01 00:00:00","0","0","2319fadaa56b66908f317eb477c15b78",,"1","2","0","0","0","5000",,"1","0","0","0","0","2000-01-01 00:00:00",,"1","1","0","0","0","0","0","1","0",,"0","0"
"231","上泉","sunliang7610537@sina.com","http://cdn.aixifan.com/dotnet/20120923/style/image/avatar.jpg",,"1","2114-01-01 00:00:00","0","0","1e43465e5d6eab0aefe7728977b13461",,"1","2","0","0","0","5000",,"1","0","0","0","0","2000-01-01 00:00:00",,"1","1","0","0","0","0","0","1","0",,"0","0"
"232","liuchunshan","liuchunshan1919@163.com","http://cdn.aixifan.com/dotnet/20120923/style/image/avatar.jpg",,"1","2114-01-01 00:00:00","0","0","f84620e7d09354685d389a187f8e59ff",,"1","2","0","0","0","5000",,"1","0","0","0","0","2000-01-01 00:00:00",,"1","1","0","0","0","0","0","1","0",,"0","0"
"233","夏夏","5429269@qq.com","http://cdn.aixifan.com/dotnet/artemis/u/cms/www/201612/31230256c1q94rjo.jpg","喵喵喵","0","2014-11-11 00:00:00","0","1","83422503bcfc01d303030e8a7cc80efc",,"1","3","0","0","0","5075",,"1","0","0","0","0","2017-03-01 00:00:00","15558542865","1","1","1","1","0","1","0","1","0",,"0","0"
"234","豆豆","751745089@qq.com","http://cdn.aixifan.com/dotnet/20120923/style/image/avatar.jpg",,"1","2114-01-01 00:00:00","0","0","16716475400d03a9f428b794d4fcdb5e",,"1","2","0","0","0","5048",,"1","0","0","0","0","2016-04-15 00:00:00",,"1","1","0","0","0","0","0","1","0",,"0","0"
"235","豹纹D女王。","359587790@qq.com","http://cdn.aixifan.com/dotnet/artemis/u/cms/www/201305/13125223knmv.jpg","车船店脚衙 无罪也该杀","0","2111-06-03 00:00:00","0","1","0e357422d3b37e7fd9b8cfd67f68f1e7",,"1","3","0","0","0","5872",,"1","2","0","0","0","2016-09-01 00:00:00",,"1","1","0","1","0","0","0","1","0",,"0","0"
"236","YYGundam","key1998@qq.com","http://cdn.aixifan.com/dotnet/artemis/u/cms/www/201509/12224812eo161oxi.jpg","辣鸡网站， 毁我青春， 颓我精神， 害我单身！ﾟ ∀ﾟ)ノ","0","2111-06-03 00:00:00","0","1","400c7444333448cecaba4354bbe920f3","YkpCap6Chi1hlk8ZAL7XgYSz90lXzl7oUoVKF84GX34GgpQoLFZto8ShEgqz4D8vj4T02bqspprgWpsr1D8eVYs8UkMJN1xGJgBMJCEjxdBtZizUKX44ggTmzns8G2Ig","1","3","0","0","0","5177",,"1","0","5","0","0","2017-11-01 00:00:00","13165863301","1","1","1","1","0","18","0","1","0",,"0","0"
"237","dota","344186563@qq.com","http://cdn.aixifan.com/dotnet/20120923/style/image/avatar.jpg",,"1","2114-01-01 00:00:00","0","0","1a94a9c7b4439eff518a99c120630c7a",,"1","2","0","0","0","5003",,"1","0","0","0","0","2015-05-01 00:00:00",,"1","1","0","0","0","0","0","1","0",,"0","0"
"238","赤来杏","a137764972@gmail.com","http://cdn.aixifan.com/dotnet/artemis/u/cms/www/201707/07233909n4ovjqg9.jpg","害我单身！！！！！1","0","2012-02-20 00:00:00","0","1","c3812aadfe11e863285422baead7e6c4","AHxqnPN4XWGYTJAdzdQisoDgXxkua2L72TM6YkkbIxKbZH3Toh7kb4pFOi23gyoJnyFruK41WESrE1OEin9P3XSOu6Gah5wNOPzIhysOu4x1ZuMJnOduyp8grfKeeYsa","1","3","0","0","0","5148",,"1","0","15","0","0","2017-11-01 00:00:00","17681752600","1","1","1","1","1","18","0","1","0",,"0","0"
"239","三清","okhere6006@163.com","http://cdn.aixifan.com/dotnet/20120923/style/image/avatar.jpg",,"1","2114-01-01 00:00:00","0","0","1e0fccc57ccb3403bdeb6422e9c1504f",,"1","2","0","0","0","5000",,"1","0","0","0","0","2000-01-01 00:00:00",,"1","1","0","0","0","0","0","1","0",,"0","0"
"240","真红","fengyiyi13@163.com","http://cdn.aixifan.com/dotnet/artemis/u/cms/www/201301/06233604vxt5.jpg","小说推书博客：http://noteview.org/","0","2012-02-20 00:00:00","0","1","6529cbe646976ad2790ef93d05399575","0z5cCioEJGesqPNQ4NFsSRHWEDWFyYFnGPK86r21Uu88DRC3x7FRKcKnmUQ6TftlmyW27STymLgdey6hjEHNvoAQcRQS8J0oUjzpJLxebkCSn7uZ7mG4MW7Dn0K4Bepu","1","7","0","0","0","8096",,"1","0","105","5","0","2017-11-01 00:00:00","18271938372","1","1","1","1","1","1","0","1","0",,"0","0"
"241","LANCER EVO","wujianxin@.123.com","http://cdn.aixifan.com/dotnet/20120923/style/image/avatar.jpg",,"1","2114-01-01 00:00:00","0","0","9442c63c447c3eaa5d4fc5d7da896a2d",,"1","2","0","0","0","5000",,"1","0","0","0","0","2000-01-01 00:00:00",,"1","1","0","0","0","0","0","1","0",,"0","0"
"242","海王 波斯顿 ","www.@QQ.com","http://cdn.aixifan.com/dotnet/20120923/style/image/avatar.jpg",,"1","2114-01-01 00:00:00","0","0","b902c89db103e386592ad19ff7a78b9b",,"1","2","0","0","0","5000",,"1","0","0","0","0","2000-01-01 00:00:00",,"1","1","0","0","0","0","0","1","0",,"0","0"
"243","fb8py","fb8py@163.com","http://cdn.aixifan.com/dotnet/artemis/u/cms/www/201502/241824295to4.jpg","我的秘密","0","2012-02-20 00:00:00","0","1","aa5628b1ac1a2c1d9c28fd6747a1e0a4","FTAkuIquL8ymxSgDgadzmaHyadAh5L9WUt2hc4RJryi5JEy6CouB00qAykc0YWKguhXoja0X5B9AowF2Z6ONfIYNu65M9i5fbt1KWOLYkt7t8GvojNMsN7Gw06FhgaA1","1","5","0","0","0","5184",,"1","0","0","0","0","2017-10-01 00:00:00","13534940586","1","1","1","1","1","1","0","1","0",,"0","0"
"244","典爷","zd359446086@sina.com","http://cdn.aixifan.com/dotnet/20120923/style/image/avatar.jpg",,"1","2114-01-01 00:00:00","0","0","85795433a503442298bd847745fa3272",,"1","2","0","0","0","5000",,"1","0","0","0","0","2000-01-01 00:00:00",,"1","1","0","0","0","0","0","1","0",,"0","0"
"245","、|阳阳′","jxmjq2004@163.com","http://cdn.aixifan.com/dotnet/20120923/style/image/avatar.jpg",,"1","2114-01-01 00:00:00","0","0","6cc0d36686e6a433aa76f96773852d35",,"1","2","0","0","0","5000",,"1","3","0","0","0","2000-01-01 00:00:00",,"1","1","0","0","0","0","0","1","0",,"0","0"
"246","碧虎","773676287@qq.com","http://cdn.aixifan.com/dotnet/20120923/style/image/avatar.jpg",,"1","2114-01-01 00:00:00","0","0","92121c74cb7eb5992dbaa71452cd9c32",,"1","2","0","0","0","5000",,"1","0","0","0","0","2000-01-01 00:00:00",,"1","1","0","0","0","0","0","1","0",,"0","0"
"247","傲海","aohailove@tom.com","http://cdn.aixifan.com/dotnet/20120923/style/image/avatar.jpg",,"1","2114-01-01 00:00:00","0","0","650753d282965236fd155f5989792766",,"1","2","0","0","0","5000",,"1","0","0","0","0","2000-01-01 00:00:00",,"1","1","0","0","0","0","0","1","0",,"0","0"
"248","铁宏","neng999@sina.com","http://cdn.aixifan.com/dotnet/20120923/style/image/avatar.jpg",,"1","2114-01-01 00:00:00","0","0","0c3c73d3714bdb2fa75dcdf6dd742e69",,"1","2","0","0","0","5000",,"1","0","0","0","0","2000-01-01 00:00:00",,"1","1","0","0","0","0","0","1","0",,"0","0"
"249","难舍情结","tk307523326@126.com","http://cdn.aixifan.com/dotnet/20120923/style/image/avatar.jpg",,"1","2114-01-01 00:00:00","0","0","ee095be9c2f08ca4978ac01d28c79252",,"1","2","0","0","0","5000",,"1","0","0","0","0","2000-01-01 00:00:00",,"1","1","0","0","0","0","0","1","0",,"0","0"
"250","YOYO","344061810@qq.com","http://cdn.aixifan.com/dotnet/20120923/style/image/avatar.jpg",,"1","2114-01-01 00:00:00","0","0","67fb636a4416c5eb7bc9682a82ae9df0",,"1","2","0","0","0","5003",,"1","0","0","0","0","2016-09-01 00:00:00",,"1","1","0","0","0","0","0","1","0",,"0","0"
"251","︵绣ジ精々灵","wujinwujie@126.com","http://cdn.aixifan.com/dotnet/20120923/style/image/avatar.jpg",,"1","2114-01-01 00:00:00","0","0","4a4b98ed0f66ecc3720543c2ad681624",,"1","2","0","0","0","5000",,"1","0","0","0","0","2000-01-01 00:00:00",,"1","1","0","0","0","0","0","1","0",,"0","0"
"252","Kenny歪","f151731650@tom.com","http://cdn.aixifan.com/dotnet/20120923/style/image/avatar.jpg",,"1","2114-01-01 00:00:00","0","0","61c387b8b85b60f367bf3de7134e05e5",,"1","2","0","0","0","5000",,"1","0","0","0","0","2000-01-01 00:00:00",,"1","1","0","0","0","0","0","1","0",,"0","0"
"253","BOSS","bossheihei@163.com","http://cdn.aixifan.com/dotnet/artemis/u/cms/www/201301/07202003w9gj.jpg",,"0","2012-02-20 00:00:00","0","1","83435c2dc5e15e226d81c4bce95ff897",,"1","4","0","0","0","5084",,"1","0","0","0","0","2016-09-01 00:00:00",,"1","1","0","1","0","0","0","1","0",,"0","0"
"254","炎冰乱舞","bibilau@126.com","http://cdn.aixifan.com/dotnet/20120923/style/image/avatar.jpg",,"1","2114-01-01 00:00:00","0","0","41d5e7316e982717c3dfcb32a00f0662",,"1","2","0","0","0","5000",,"1","0","0","0","0","2000-01-01 00:00:00",,"1","1","0","0","0","0","0","1","0",,"0","0"
"255","红花郎","feihutang@126.com","http://cdn.aixifan.com/dotnet/20120923/style/image/avatar.jpg",,"0","2012-02-20 00:00:00","0","1","5a2168cc1d4ffd106027aee78985e642",,"1","3","0","0","0","5009",,"1","0","0","0","0","2017-04-01 00:00:00",,"1","1","0","1","0","0","0","1","0",,"0","0"
"256","yangmingda8675924","yangmingda8675924@163.com","http://cdn.aixifan.com/dotnet/20120923/style/image/avatar.jpg",,"1","2114-01-01 00:00:00","0","0","34aad91449c3110084e81cc9cf5e103b",,"1","2","0","0","0","5000",,"1","0","0","0","0","2000-01-01 00:00:00",,"1","1","0","0","0","0","0","1","0",,"0","0"
"257","虫之歌","zsxxy1@126.com","http://cdn.aixifan.com/dotnet/artemis/u/cms/www/201601/17182531g2ivg617.jpg",,"0","2012-02-20 00:00:00","0","1","b5793e7c61a0b378089b99eddabd2405",,"1","3","0","0","0","5046",,"1","0","0","0","0","2016-10-01 00:00:00","13636605754","1","1","1","1","0","1","0","1","0",,"0","0"
"258","熹歡↘wu语","117397659@QQ.com","http://cdn.aixifan.com/dotnet/20120923/style/image/avatar.jpg",,"1","2114-01-01 00:00:00","0","0","964bca021c6e55aaa6d35d7077c3c696",,"1","2","0","0","0","5000",,"1","0","0","0","0","2000-01-01 00:00:00",,"1","1","0","0","0","0","0","1","0",,"0","0"
"259","asdxa","www.sa@sx.com","http://cdn.aixifan.com/dotnet/20120923/style/image/avatar.jpg",,"1","2114-01-01 00:00:00","0","0","00377451adb50d2f76f7c82533b2daaa",,"1","2","0","0","0","5000",,"1","0","0","0","0","2000-01-01 00:00:00",,"1","1","0","0","0","0","0","1","0",,"0","0"
"260","B059B87FFC454D899551C0FD8E6018B2","136171314@qq.com","http://cdn.aixifan.com/dotnet/20120923/style/image/avatar.jpg",,"1","2114-01-01 00:00:00","0","0","e153e8c76ba6b8613317e471e7ef94ef",,"1","2","0","0","0","5000",,"1","0","0","0","0","2000-01-01 00:00:00",,"1","1","0","0","0","0","0","1","0",,"0","0"
"261","漫迷","qwaszxc.-123@163.com","http://cdn.aixifan.com/dotnet/20120923/style/image/avatar.jpg",,"1","2114-01-01 00:00:00","0","0","c2b47aba343245d982c9c440a37abd2f",,"1","2","0","0","0","5000",,"1","0","0","0","0","2000-01-01 00:00:00",,"1","1","0","0","0","0","0","1","0",,"0","0"
"262","楼兰神话","yhq1108@qq.com","http://cdn.aixifan.com/dotnet/20120923/style/image/avatar.jpg",,"0","2014-12-24 00:00:00","0","1","5d39a6a2ae47a7a5716bb042f4ef4e34",,"1","3","0","0","0","5026",,"1","0","0","0","0","2016-09-01 00:00:00",,"1","1","0","1","0","0","0","1","0",,"0","0"
"263","saber男人","jicky00168@163.com","http://cdn.aixifan.com/dotnet/20120923/style/image/avatar.jpg",,"1","2114-01-01 00:00:00","0","0","48963f83c291b0f75e51bdc3dcf41185",,"1","2","0","0","0","5000",,"1","0","0","0","0","2000-01-01 00:00:00",,"1","1","0","0","0","0","0","1","0",,"0","0"
"264","が尐寶戀エル","544126781@qq.com","http://cdn.aixifan.com/dotnet/20120923/style/image/avatar.jpg",,"1","2114-01-01 00:00:00","0","0","44c5d0ff7b0bba4487f3cddaec33d7ee",,"1","2","0","0","0","5000",,"1","0","0","0","0","2000-01-01 00:00:00",,"1","1","0","0","0","0","0","1","0",,"0","0"
"265","adanchan","adanchan@163.com","http://cdn.aixifan.com/dotnet/20120923/style/image/avatar.jpg",,"1","2114-01-01 00:00:00","0","0","03e6c61603f6c550ab49ab6a2d83f793",,"1","2","0","0","0","5000",,"1","0","0","0","0","2000-01-01 00:00:00",,"1","1","0","0","0","0","0","1","0",,"0","0"
"266","灭世","jiexf2008@126.com","http://cdn.aixifan.com/dotnet/20120923/style/image/avatar.jpg",,"1","2114-01-01 00:00:00","0","0","94e5dccec9114b269badad9355e684bc",,"1","2","0","0","0","5000",,"1","0","0","0","0","2000-01-01 00:00:00",,"1","1","0","0","0","0","0","1","0",,"0","0"
"267","番茄","Fega163@163.com","http://cdn.aixifan.com/dotnet/20120923/style/image/avatar.jpg",,"0","2111-06-03 00:00:00","0","0","02c67fbd033c85e6006d8ef1f3f24852",,"1","2","0","0","0","5016",,"1","0","0","0","0","2016-09-01 00:00:00",,"1","1","0","0","0","0","0","1","0",,"0","0"
"268","nima","329440896@qq.com","http://cdn.aixifan.com/dotnet/20120923/style/image/avatar.jpg",,"1","2114-01-01 00:00:00","0","0","79d886010186eb60e3611cd4a5d0bcae",,"1","2","0","0","0","5000",,"1","0","0","0","0","2000-01-01 00:00:00",,"1","1","0","0","0","0","0","1","0",,"0","0"
"269","委员","zhongyuan@sina.com","http://cdn.aixifan.com/dotnet/20120923/style/image/avatar.jpg",,"0","2111-06-03 00:00:00","0","0","e10adc3949ba59abbe56e057f20f883e",,"1","2","0","0","1","6419",,"1","0","0","0","0","2016-09-01 00:00:00",,"1","1","0","0","0","0","0","1","0",,"0","0"
"270","妖哥","hoau-lgd@163.com","http://cdn.aixifan.com/dotnet/20120923/style/image/avatar.jpg",,"1","2114-01-01 00:00:00","0","0","2c413f977376f7b6613f83340eb316cc",,"1","2","0","0","0","5000",,"1","0","0","0","0","2000-01-01 00:00:00",,"1","1","0","0","0","0","0","1","0",,"0","0"
"271","无名小兵","yangchao_008@yahoo.com.cn","http://cdn.aixifan.com/dotnet/20120923/style/image/avatar.jpg",,"1","2114-01-01 00:00:00","0","0","ce1761ae6906711ef580e610851b1244",,"1","2","0","0","0","5000",,"1","0","0","0","0","2000-01-01 00:00:00",,"1","1","0","0","0","0","0","1","0",,"0","0"
"272","羽飞","512183016@qq.com","http://cdn.aixifan.com/dotnet/20120923/style/image/avatar.jpg",,"1","2114-01-01 00:00:00","0","0","200ae1f2597a7831efe2bdfa9d482a99",,"1","2","0","0","0","5000",,"1","0","0","0","0","2000-01-01 00:00:00",,"1","1","0","0","0","0","0","1","0",,"0","0"
"273","dyrone","thchghgv123@263.net","http://cdn.aixifan.com/dotnet/20120923/style/image/avatar.jpg",,"0","2111-06-03 00:00:00","0","0","f0d9bac9279c026a720f9caaebd14bea",,"1","2","0","0","0","5000",,"1","0","0","0","0","2016-09-01 00:00:00",,"1","1","0","0","0","0","0","1","0",,"0","0"
"274","鬼道","yangzhidongman@qq.com","http://cdn.aixifan.com/dotnet/20120923/style/image/avatar.jpg",,"1","2114-01-01 00:00:00","0","0","d2dbcd555956aefeb9935754b48c9336",,"1","2","0","0","0","5000",,"1","0","0","0","0","2000-01-01 00:00:00",,"1","1","0","0","0","0","0","1","0",,"0","0"
"275","wurenen","wurenen@126.com","http://cdn.aixifan.com/dotnet/20120923/style/image/avatar.jpg",,"1","2114-01-01 00:00:00","0","0","200419688058a17d51277b7f6d92380f",,"1","2","0","0","0","5003",,"1","0","0","0","0","2000-01-01 00:00:00",,"1","1","0","0","0","0","0","1","0",,"0","0"
"276","雷克斯","anti7@qq.com","http://cdn.aixifan.com/dotnet/artemis/u/cms/www/201206/15034436am7t.jpg",,"0","2015-02-25 00:00:00","0","1","9ca34a102d6f27dd2c51c6587d60eb29","BKr2BPybq7A2Yon290BLgyyMfarn1d0wQa0rgohyPKnAVDyS39VOBX2vADX5S2E1aiABkTwctuyzM4Cwz01nosFSXxAx0VlqzVrYTmZbEbemFLBhIM3gZFqmaDi6e7rl","1","18","0","3","0","8955",,"1","2","0","0","10","2017-10-01 00:00:00","13688644774","1","1","1","1","0","14","0","1","0",,"0","0"
"277","暖暖","mandy1235@tom.com","http://cdn.aixifan.com/dotnet/20120923/style/image/avatar.jpg",,"1","2114-01-01 00:00:00","0","0","5c54c4a429f00cf4cd83d625bbe979e3",,"1","2","0","0","0","5000",,"1","0","0","0","0","2000-01-01 00:00:00",,"1","1","0","0","0","0","0","1","0",,"0","0"
"278","7758258","zxq4564@163.com","http://cdn.aixifan.com/dotnet/20120923/style/image/avatar.jpg",,"0","2012-02-20 00:00:00","0","0","3157017b64982a745d81591a1092b8a3",,"1","2","0","0","0","5000",,"1","0","0","0","0","2016-09-01 00:00:00",,"1","1","0","0","0","0","0","1","0",,"0","0"
"279","MAN","leung00@163.com","http://cdn.aixifan.com/dotnet/20120923/style/image/avatar.jpg",,"0","2012-02-20 00:00:00","0","1","5a2168cc1d4ffd106027aee78985e642",,"1","2","0","0","0","5009",,"1","0","0","0","0","2017-04-01 00:00:00",,"1","1","0","1","0","0","0","1","0",,"0","0"
"280","buzhidao","252484228@qq.com","http://cdn.aixifan.com/dotnet/20120923/style/image/avatar.jpg",,"1","2114-01-01 00:00:00","0","0","3d0395d8f9aab88ba517746139b4b65c",,"1","2","0","0","0","5000",,"1","0","0","0","0","2000-01-01 00:00:00",,"1","1","0","0","0","0","0","1","0",,"0","0"
"281","Kira","22988772@163.com","http://cdn.aixifan.com/dotnet/20120923/style/image/avatar.jpg",,"1","2114-01-01 00:00:00","0","0","b2811dbdb880a3ab010b5a092d1ce126",,"1","2","0","0","0","5003",,"1","0","0","0","0","2000-01-01 00:00:00",,"1","1","0","0","0","0","0","1","0",,"0","0"
"282","Amy","amy159@126.com","http://cdn.aixifan.com/dotnet/20120923/style/image/avatar.jpg",,"1","2114-01-01 00:00:00","0","0","b9f469d41e9d97bf598bc4f2a68482c5",,"1","2","0","0","0","5000",,"1","0","0","0","0","2000-01-01 00:00:00",,"1","1","0","0","0","0","0","1","0",,"0","0"
"283","ee","yentuzmm@hotmail.com","http://cdn.aixifan.com/dotnet/20120923/style/image/avatar.jpg",,"0","2012-02-20 00:00:00","0","1","b9e86b9b86c0a9cfb902fbe594411769",,"1","2","0","0","0","5000",,"1","0","0","0","0","2016-09-01 00:00:00",,"1","1","0","1","0","0","0","1","0",,"0","0"
"284","风筝V线","446234405@qq.com","http://cdn.aixifan.com/dotnet/20120923/style/image/avatar.jpg",,"1","2114-01-01 00:00:00","0","0","3c87e581d9dc4e9194ceaed1827e5223",,"1","2","0","0","0","5000",,"1","0","0","0","0","2000-01-01 00:00:00",,"1","1","0","0","0","0","0","1","0",,"0","0"
"285","逆袭","sazabi424@163.com","http://cdn.aixifan.com/dotnet/20120923/style/image/avatar.jpg",,"1","2114-01-01 00:00:00","0","0","607dad5a892fbf2e555a1a82f892ed70",,"1","2","0","0","0","5000",,"1","0","0","0","0","2000-01-01 00:00:00",,"1","1","0","0","0","0","0","1","0",,"0","0"
"286","天芒","luoenter@sohu.com","http://cdn.aixifan.com/dotnet/20120923/style/image/avatar.jpg",,"1","2114-01-01 00:00:00","0","0","c28b9eda20788b2b7ff931865c51996b",,"1","2","0","0","0","5000",,"1","0","0","0","0","2000-01-01 00:00:00",,"1","1","0","0","0","0","0","1","0",,"0","0"
"287","蓦然","stillskyye@163.com","http://cdn.aixifan.com/dotnet/20120923/style/image/avatar.jpg",,"1","2114-01-01 00:00:00","0","0","c315919d10839543d3742ea0a8d9961d",,"1","2","0","0","0","5000",,"1","0","0","0","0","2000-01-01 00:00:00",,"1","1","0","0","0","0","0","1","0",,"0","0"
"288","sk","shake1989@126.com","http://cdn.aixifan.com/dotnet/20120923/style/image/avatar.jpg",,"1","2114-01-01 00:00:00","0","0","f46ef81f2464441ba58aeecbf654ee41",,"1","2","0","0","0","5000",,"1","0","0","0","0","2000-01-01 00:00:00",,"1","1","0","0","0","0","0","1","0",,"0","0"
"289","志志雄","dingji2@126.com","http://cdn.aixifan.com/dotnet/20120923/style/image/avatar.jpg",,"0","2012-02-20 00:00:00","0","1","5a2168cc1d4ffd106027aee78985e642",,"1","2","0","0","0","5009",,"1","0","0","0","0","2017-04-01 00:00:00",,"1","1","0","1","0","0","0","1","0",,"0","0"
"290","波兰街二少","chufei3@yahoo.com.cn","http://cdn.aixifan.com/dotnet/20120923/style/image/avatar.jpg",,"1","2114-01-01 00:00:00","0","0","6ad08762ccf17cc03084168b9c7e1498",,"1","2","0","0","0","5000",,"1","0","0","0","0","2000-01-01 00:00:00",,"1","1","0","0","0","0","0","1","0",,"0","0"
"291","KaKaKa","gdgundam@126.com","http://cdn.aixifan.com/dotnet/20120923/style/image/avatar.jpg",,"1","2114-01-01 00:00:00","0","0","dd14dccf46b77a28faa0a6ffdaf3958c",,"1","2","0","0","0","5019",,"1","0","0","0","0","2000-01-01 00:00:00",,"1","1","0","0","0","0","0","1","0",,"0","0"
"292","10000","812052863@qq.com","http://cdn.aixifan.com/dotnet/20120923/style/image/avatar.jpg",,"1","2114-01-01 00:00:00","0","0","c370984146f29dbebbbf589b677fb52e","xX1cPNseiAhUdWAv6ihrTUXwZvh8gyAvvaPsayt6MboeJBUGrDTTdevbB8YJwoK7SmsfK8GNx66gSqpshBynjAVyZ3qHMVipwPh8po3wMyTB8sFRoGWYFSwGwhJz87YQ","1","2","0","0","0","5000",,"1","0","0","0","0","2000-01-01 00:00:00",,"1","1","0","0","0","0","0","1","0",,"0","0"
"293","龙","bueraclong@163.com","http://cdn.aixifan.com/dotnet/20120923/style/image/avatar.jpg",,"0","2111-06-03 00:00:00","0","1","3de9a116efa916c14129b3361c3a8990",,"1","2","0","0","0","5016",,"1","0","0","0","0","2016-09-01 00:00:00",,"1","1","0","1","0","0","0","1","0",,"0","0"
"294","Roses灬ZL","413466857@qq.com","http://cdn.aixifan.com/dotnet/20120923/style/image/avatar.jpg",,"1","2114-01-01 00:00:00","0","0","c9c532a203c85792049df2931503bc74",,"1","2","0","0","0","5000",,"1","0","0","0","0","2000-01-01 00:00:00",,"1","1","0","0","0","0","0","1","0",,"0","0"
"295","风风","stwhirp@163.com","http://cdn.aixifan.com/dotnet/20120923/style/image/avatar.jpg",,"1","2114-01-01 00:00:00","0","0","7372596eaf195b9169dadf180b322011",,"1","2","0","0","0","5000",,"1","0","0","0","0","2000-01-01 00:00:00",,"1","1","0","0","0","0","0","1","0",,"0","0"
"296","★扬★"," 309531646@qq.com  ","http://cdn.aixifan.com/dotnet/20120923/style/image/avatar.jpg",,"1","2114-01-01 00:00:00","0","0","c6ccbc8e4d41ca526ca4c8af2c5788b2",,"1","2","0","0","0","5000",,"1","0","0","0","0","2000-01-01 00:00:00",,"1","1","0","0","0","0","0","1","0",,"0","0"
"297","枫忆","762107715@qq.xom","http://cdn.aixifan.com/dotnet/20120923/style/image/avatar.jpg",,"1","2114-01-01 00:00:00","0","0","7f81125d62b38a0890c620f67a644026",,"1","2","0","0","0","5000",,"1","0","0","0","0","2000-01-01 00:00:00",,"1","1","0","0","0","0","0","1","0",,"0","0"
"298","宥","pengtianteng@163.com","http://cdn.aixifan.com/dotnet/20120923/style/image/avatar.jpg",,"1","2114-01-01 00:00:00","0","0","1e08611e5f86f94b576175221bb39505",,"1","2","0","0","0","5000",,"1","0","0","0","0","2000-01-01 00:00:00",,"1","1","0","0","0","0","0","1","0",,"0","0"
"299","A370ACF6D4094FE388FA0037E8B80E11","330293594@qq.com","http://cdn.aixifan.com/dotnet/20120923/style/image/avatar.jpg",,"1","2114-01-01 00:00:00","0","0","92a81c74650effbc2f003260ae72885b",,"1","2","0","0","0","5000",,"1","0","0","0","0","2000-01-01 00:00:00",,"1","1","0","0","0","0","0","1","0",,"0","0"
"300","taotao","xuhongtao100@qq.com","http://cdn.aixifan.com/dotnet/20120923/style/image/avatar.jpg",,"0","2015-03-02 00:00:00","0","1","cbd85534396af83d27167188fc27d7d5",,"1","2","0","0","0","5013",,"1","0","0","0","0","2016-09-01 00:00:00",,"1","1","0","1","0","0","0","1","0",,"0","0"
"301","紫","dhpxy9213@sina.com","http://cdn.aixifan.com/dotnet/20120923/style/image/avatar.jpg",,"0","2012-02-20 00:00:00","0","1","5a2168cc1d4ffd106027aee78985e642",,"1","2","0","0","0","5012",,"1","0","0","0","0","2017-04-01 00:00:00",,"1","1","0","1","0","0","0","1","0",,"0","0"
"302","灰原の风","zhifeng0452@126.com","http://cdn.aixifan.com/dotnet/20120923/style/image/avatar.jpg",,"1","2114-01-01 00:00:00","0","0","1e589489b523150b185e5d46dc2e69bc",,"1","2","0","0","0","5000",,"1","0","0","0","0","2000-01-01 00:00:00",,"1","1","0","0","0","0","0","1","0",,"0","0"
"303","julia2018","julia2018@sina.com","http://cdn.aixifan.com/dotnet/20120923/style/image/avatar.jpg",,"1","2114-01-01 00:00:00","0","0","882569ccd7dd27bf0f067a571b895ac2",,"1","2","0","0","0","5003",,"1","0","0","0","0","2014-12-01 00:00:00",,"1","1","0","0","0","0","0","1","0",,"0","0"
"304","夕阳会哭","qqy313406144@163.com","http://cdn.aixifan.com/dotnet/20120923/style/image/avatar.jpg",,"1","2114-01-01 00:00:00","0","0","9f9eacc732cff8a8b8aa1af294a0e199",,"1","2","0","0","0","5000",,"1","0","0","0","0","2000-01-01 00:00:00",,"1","1","0","0","0","0","0","1","0",,"0","0"
"305","wen..shao","liuxiaowen@126.com","http://cdn.aixifan.com/dotnet/20120923/style/image/avatar.jpg",,"1","2114-01-01 00:00:00","0","0","e83eaabae023b5455412d78ea72784e3",,"1","2","0","0","0","5000",,"1","0","0","0","0","2000-01-01 00:00:00",,"1","1","0","0","0","0","0","1","0",,"0","0"
"306","双面人","pjdds25@163.com","http://cdn.aixifan.com/dotnet/20120923/style/image/avatar.jpg",,"1","2114-01-01 00:00:00","0","0","d1d121a4f7956af772c0376b9403deb2",,"1","2","0","0","0","5000",,"1","0","0","0","0","2000-01-01 00:00:00",,"1","1","0","0","0","0","0","1","0",,"0","0"
"307","KISS奥菲莉娅","mint@qq.com","http://cdn.aixifan.com/dotnet/20120923/style/image/avatar.jpg",,"0","2111-06-03 00:00:00","0","0","6aee19407ccad6c9b88ca18f6a4da186",,"1","2","0","0","0","5000",,"1","0","0","0","0","2016-09-01 00:00:00",,"1","1","0","0","0","0","0","1","0",,"0","0"
"308","风の逍遥","wdz567@yahoo.com.cn","http://cdn.aixifan.com/dotnet/20120923/style/image/avatar.jpg",,"1","2114-01-01 00:00:00","0","0","a68527d25b68cbe6390d86fc10fca05e",,"1","2","0","0","0","5980",,"1","0","0","0","0","2016-09-01 00:00:00",,"1","1","0","0","0","0","0","1","0",,"0","0"
"309","ＴＴ","bueractt@163.com","http://cdn.aixifan.com/dotnet/20120923/style/image/avatar.jpg",,"0","2111-06-03 00:00:00","0","1","8411f96c0bdc5cb3fabd958c3627edf6",,"1","2","0","0","0","5016",,"1","0","0","0","0","2016-09-01 00:00:00",,"1","1","0","1","0","0","0","1","0",,"0","0"
"310","999","lhbai999@163.com","http://cdn.aixifan.com/dotnet/20120923/style/image/avatar.jpg",,"0","2012-02-20 00:00:00","0","1","5a2168cc1d4ffd106027aee78985e642",,"1","2","0","0","0","5021",,"1","0","0","0","0","2017-04-01 00:00:00",,"1","1","0","1","0","0","0","1","0",,"0","0"
"311","无奈","tangqi04@tom.com","http://cdn.aixifan.com/dotnet/20120923/style/image/avatar.jpg",,"1","2114-01-01 00:00:00","0","0","d894d1fe0abea9f2dca892c5a32d3dbd",,"1","2","0","0","0","5000",,"1","0","0","0","0","2000-01-01 00:00:00",,"1","1","0","0","0","0","0","1","0",,"0","0"
"312","LOVE动漫","yjf349121993@126.com","http://cdn.aixifan.com/dotnet/20120923/style/image/avatar.jpg",,"1","2114-01-01 00:00:00","0","0","6d1c72824be6256cda7134738efef9e4",,"1","2","0","0","0","5000",,"1","0","0","0","0","2000-01-01 00:00:00",,"1","1","0","0","0","0","0","1","0",,"0","0"
"313","咖喱辣椒","lyj3728@sina.com","http://cdn.aixifan.com/dotnet/20120923/style/image/avatar.jpg",,"1","2114-01-01 00:00:00","0","0","cc3d03ef2e6e3ecfa3fbb135ea0e60cd",,"1","2","0","0","0","5000",,"1","0","0","0","0","2000-01-01 00:00:00",,"1","1","0","0","0","0","0","1","0",,"0","0"
"314","哀乐","rpili@qq.com","http://cdn.aixifan.com/dotnet/20120923/style/image/avatar.jpg",,"0","2114-01-01 00:00:00","0","1","96e50f0f48b71ef71581d20560eefc67","5XxMgc","1","2","0","0","0","5314",,"1","0","0","0","0","2017-07-01 00:00:00",,"1","1","0","1","0","0","0","1","0",,"0","0"
"315","花非语","lyyforerve@126.com","http://cdn.aixifan.com/dotnet/20120923/style/image/avatar.jpg",,"1","2114-01-01 00:00:00","0","0","b42bfce9a254d8832fb11c14a3859778",,"1","2","0","0","0","5000",,"1","0","0","0","0","2000-01-01 00:00:00",,"1","1","0","0","0","0","0","1","0",,"0","0"
"316","IV药师","ztc@21cn.com","http://cdn.aixifan.com/dotnet/20120923/style/image/avatar.jpg",,"1","2114-01-01 00:00:00","0","0","be7dffe80ceae8d90aa1e3007dfdfade",,"1","2","0","0","0","5000",,"1","0","0","0","0","2000-01-01 00:00:00",,"1","1","0","0","0","0","0","1","0",,"0","0"
"317","單調","whyni0823@qq.com","http://cdn.aixifan.com/dotnet/20120923/style/image/avatar.jpg",,"1","2114-01-01 00:00:00","0","0","ce7720ca4a3ebd439a8e734440be76f8",,"1","2","0","0","0","5000",,"1","0","0","0","0","2000-01-01 00:00:00",,"1","1","0","0","0","0","0","1","0",,"0","0"
"318","boboo","ljf_2500@163.com","http://cdn.aixifan.com/dotnet/20120923/style/image/avatar.jpg",,"0","2012-02-20 00:00:00","0","0","982c2afda3f32bc7a9efbef0e8fa8574",,"1","2","0","0","0","5000",,"1","0","0","0","0","2016-09-01 00:00:00",,"1","1","0","0","0","0","0","1","0",,"0","0"
"319","Max","maxfy@sina","http://cdn.aixifan.com/dotnet/20120923/style/image/avatar.jpg",,"0","2111-06-03 00:00:00","0","0","51d4fc303075719da09041479e688f03",,"1","2","0","0","0","5003",,"1","0","0","0","0","2016-09-01 00:00:00",,"1","1","0","0","0","0","0","1","0",,"0","0"
"320","as","szh0812@sina.com","http://cdn.aixifan.com/dotnet/20120923/style/image/avatar.jpg",,"1","2114-01-01 00:00:00","0","0","bfff068d1ff416995f60839d74a0ec1e",,"1","2","0","0","0","5000",,"1","0","0","0","0","2000-01-01 00:00:00",,"1","1","0","0","0","0","0","1","0",,"0","0"
"321","阿福","liufusheng2107@yahoo.com.cn","http://cdn.aixifan.com/dotnet/20120923/style/image/avatar.jpg",,"1","2114-01-01 00:00:00","0","0","a71a0857f0ead2d4367fa63d4c346970",,"1","2","0","0","0","5005",,"1","0","0","0","0","2016-09-01 00:00:00",,"1","1","0","0","0","0","0","1","0",,"0","0"
"322","CLAYMORE","yanglongjiang0000@sina.com","http://cdn.aixifan.com/dotnet/20120923/style/image/avatar.jpg",,"1","2114-01-01 00:00:00","0","0","5941b8348d7734ef516c61ce1cb4abe0",,"1","2","0","0","0","5000",,"1","0","0","0","0","2000-01-01 00:00:00",,"1","1","0","0","0","0","0","1","0",,"0","0"
"324","三哥","doudou.good.2008@163.com","http://cdn.aixifan.com/dotnet/20120923/style/image/avatar.jpg",,"1","2114-01-01 00:00:00","0","0","8d8e1f9cf1f36e1b0e5a714c553a5d33",,"1","2","0","0","0","5000",,"1","0","0","0","0","2000-01-01 00:00:00",,"1","1","0","0","0","0","0","1","0",,"0","0"
"325","kenken","kenken@hotmail.com","http://cdn.aixifan.com/dotnet/20120923/style/image/avatar.jpg",,"1","2114-01-01 00:00:00","0","0","905e698ef24f078cbf18047ab20982ee","ovSNtMHWqDwuIGsLRnG9NVxKexXzXMprm2EmIVtOh0dVTlkxPx1DJ7ducKEdi5f7TXu5eqLNLgZrg3KmCDXCkrDdNHHwBhyWXwoIqkD5T7w9OhLEaKLxEDuZrZ0BCYTr","1","2","0","0","0","5003",,"1","0","0","0","0","2017-10-01 00:00:00",,"1","1","0","0","0","0","0","1","0",,"0","0"
"326","波纹の鞘","mint@qq.com","http://cdn.aixifan.com/dotnet/20120923/style/image/avatar.jpg",,"1","2114-01-01 00:00:00","0","0","6aee19407ccad6c9b88ca18f6a4da186",,"1","2","0","0","0","5000",,"1","0","0","0","0","2000-01-01 00:00:00",,"1","1","0","0","0","0","0","1","0",,"0","0"
"327","永恒第二局长","175328902@163.com","http://cdn.aixifan.com/dotnet/20120923/style/image/avatar.jpg",,"1","2114-01-01 00:00:00","0","0","6bc1352b807095a3fd1cc4dde4a45e24",,"1","2","0","0","0","5000",,"1","0","0","0","0","2000-01-01 00:00:00",,"1","1","0","0","0","0","0","1","0",,"0","0"
"328","Boy","sexshilu@163.com","http://cdn.aixifan.com/dotnet/20120923/style/image/avatar.jpg",,"1","2114-01-01 00:00:00","0","0","3c6fcccf800b9652d2ac85de6c108c86",,"1","2","0","0","0","5000",,"1","0","0","0","0","2000-01-01 00:00:00",,"1","1","0","0","0","0","0","1","0",,"0","0"
"329","潇洒的我","80853276@qq.com","http://cdn.aixifan.com/dotnet/20120923/style/image/avatar.jpg",,"1","2114-01-01 00:00:00","0","0","10a3c378ee0d0aafd69da02b9d898f66",,"1","2","0","0","0","5000",,"1","0","0","0","0","2000-01-01 00:00:00",,"1","1","0","0","0","0","0","1","0",,"0","0"
"330"," 寳°","qingqing7850@qq.com","http://cdn.aixifan.com/dotnet/20120923/style/image/avatar.jpg",,"1","2114-01-01 00:00:00","0","0","3879e39b814d9d402186dccbcad0eadf",,"1","2","0","0","0","5000",,"1","0","0","0","0","2000-01-01 00:00:00",,"1","1","0","0","0","0","0","1","0",,"0","0"
"331","牛牛","yang_19840331@163.com","http://cdn.aixifan.com/dotnet/20120923/style/image/avatar.jpg",,"1","2114-01-01 00:00:00","0","0","8836ccc7988837dcb7af1c16ca7a1d15",,"1","2","0","0","0","5000",,"1","0","0","0","0","2000-01-01 00:00:00",,"1","1","0","0","0","0","0","1","0",,"0","0"
"332","lzc777","zx@34.comcom","http://cdn.aixifan.com/dotnet/20120923/style/image/avatar.jpg",,"1","2114-01-01 00:00:00","0","0","3aab2ff1b4a9b5ad40a8c49790b26476",,"1","2","0","0","0","5000",,"1","0","0","0","0","2000-01-01 00:00:00",,"1","1","0","0","0","0","0","1","0",,"0","0"
"333","随风-RS","406706302@qq.com","http://cdn.aixifan.com/dotnet/20120923/style/image/avatar.jpg",,"1","2114-01-01 00:00:00","0","0","cfeabf5d8d4418662d18c1b7f00660e8",,"1","2","0","0","0","5000",,"1","0","0","0","0","2000-01-01 00:00:00",,"1","1","0","0","0","0","0","1","0",,"0","0"
"334","lzc777-R","zx@34.com","http://cdn.aixifan.com/dotnet/20120923/style/image/avatar.jpg",,"0","2012-02-20 00:00:00","0","0","3aab2ff1b4a9b5ad40a8c49790b26476",,"1","2","0","0","0","5000",,"1","0","0","0","0","2016-09-01 00:00:00",,"1","1","0","0","0","0","0","1","0",,"0","0"
"335","|呐喊|","399063305@qq.com","http://cdn.aixifan.com/dotnet/20120923/style/image/avatar.jpg",,"1","2114-01-01 00:00:00","0","0","df724c7e8c01d02b07552016af0b9029",,"1","2","0","0","0","5000",,"1","0","0","0","0","2000-01-01 00:00:00",,"1","1","0","0","0","0","0","1","0",,"0","0"
"336","aofeng","zhcangyue@21cn.com","http://cdn.aixifan.com/dotnet/20120923/style/image/avatar.jpg",,"1","2114-01-01 00:00:00","0","0","1f9ff517b96c084d836c033d90e4c1a4",,"1","2","0","0","0","5000",,"1","0","0","0","0","2000-01-01 00:00:00",,"1","1","0","0","0","0","0","1","0",,"0","0"
"337","华山","103206831@qq.com","http://cdn.aixifan.com/dotnet/20120923/style/image/avatar.jpg",,"1","2114-01-01 00:00:00","0","0","aac0dc29086b106289a35ebd71c1aa26",,"1","2","0","0","0","5000",,"1","0","0","0","0","2000-01-01 00:00:00",,"1","1","0","0","0","0","0","1","0",,"0","0"
"338","绿茵舞者","fengzeq@yahoo.com.cn","http://cdn.aixifan.com/dotnet/20120923/style/image/avatar.jpg",,"1","2114-01-01 00:00:00","0","0","74ce3020c31053ca91a5ea24e23f1177",,"1","2","0","0","0","5000",,"1","0","0","0","0","2000-01-01 00:00:00",,"1","1","0","0","0","0","0","1","0",,"0","0"
"339","无花小鱼","cloud2010@163.com","http://cdn.aixifan.com/dotnet/20120923/style/image/avatar.jpg",,"1","2114-01-01 00:00:00","0","0","9162041ccd4c9d069390ebc4ec7542e2",,"1","2","0","0","0","5003",,"1","0","0","0","0","2015-04-01 00:00:00",,"1","1","0","0","0","0","0","1","0",,"0","0"
"340","fg","chentianyi101@126.com","http://cdn.aixifan.com/dotnet/20120923/style/image/avatar.jpg",,"1","2114-01-01 00:00:00","0","0","7dfc85b3587b7f51c579a23cf431ddac",,"1","2","0","0","0","5000",,"1","0","0","0","0","2000-01-01 00:00:00",,"1","1","0","0","0","0","0","1","0",,"0","0"
"341","niba","329440896@qq.com","http://cdn.aixifan.com/dotnet/20120923/style/image/avatar.jpg",,"1","2114-01-01 00:00:00","0","0","79d886010186eb60e3611cd4a5d0bcae",,"1","2","0","0","0","5003",,"1","0","0","0","0","2015-02-01 00:00:00",,"1","1","0","0","0","0","0","1","0",,"0","0"
"342","二度空间","dxc63737890@sina.com","http://cdn.aixifan.com/dotnet/20120923/style/image/avatar.jpg",,"0","2111-06-03 00:00:00","0","0","46f94c8de14fb36680850768ff1b7f2a",,"1","2","0","0","0","5000",,"1","0","0","0","0","2016-09-01 00:00:00",,"1","1","0","0","0","0","0","1","0",,"0","0"
"343","随风","sky_loveyao@yahoo.com.cn","http://cdn.aixifan.com/dotnet/20120923/style/image/avatar.jpg",,"1","2114-01-01 00:00:00","0","0","cfeabf5d8d4418662d18c1b7f00660e8",,"1","2","0","0","0","5000",,"1","0","0","0","0","2000-01-01 00:00:00",,"1","1","0","0","0","0","0","1","0",,"0","0"
"344","KING","cxd6202398@163.com","http://cdn.aixifan.com/dotnet/20120923/style/image/avatar.jpg",,"1","2114-01-01 00:00:00","0","0","b0120e0ac61ded22f9091be5f0c6538a",,"1","2","0","0","0","5000",,"1","0","0","0","0","2000-01-01 00:00:00",,"1","1","0","0","0","0","0","1","0",,"0","0"
"345","孙柳晔","sun88124@163.com","http://cdn.aixifan.com/dotnet/20120923/style/image/avatar.jpg",,"1","2114-01-01 00:00:00","0","0","2fd9f7f99ef8dbeb2835fe47b7e8975d",,"1","2","0","0","0","5000",,"1","0","0","0","0","2000-01-01 00:00:00",,"1","1","0","0","0","0","0","1","0",,"0","0"
"346","Eragon.L","xx7720@yahoo.com.cn","http://cdn.aixifan.com/dotnet/20120923/style/image/avatar.jpg",,"1","2114-01-01 00:00:00","0","0","dc0fa7df3d07904a09288bd2d2bb5f40",,"1","2","0","0","0","5000",,"1","0","0","0","0","2000-01-01 00:00:00",,"1","1","0","0","0","0","0","1","0",,"0","0"
"347","小鱼吃猫咪","25707017@qq.com","http://cdn.aixifan.com/dotnet/20120923/style/image/avatar.jpg",,"1","2114-01-01 00:00:00","0","1","91107277a968d15148ba0671a05e4026","bejivLZEMD7UCFq5KSx1AyEgPu3oPWmM1LlT1KNHyK3GKFOfaxhczMRUVqR4ZdTHgZ1UjY1LWArWqh00lBVAkhvhxgwjogL6XVuQNhVFKpbnarN1uA9neIxOTypFcrAg","1","2","0","0","0","5003",,"1","0","0","0","0","2015-02-01 00:00:00",,"1","1","0","1","0","0","0","1","0",,"0","0"
"348","爱看吖","ka0088@qq.com","http://cdn.aixifan.com/dotnet/20120923/style/image/avatar.jpg",,"1","2114-01-01 00:00:00","0","0","20e48f5087ac9be1f2a4b3eb40bae186",,"1","2","0","0","0","5000",,"1","0","0","0","0","2000-01-01 00:00:00",,"1","1","0","0","0","0","0","1","0",,"0","0"
"349","dudu","dudu19840120@hotmail.com","http://cdn.aixifan.com/dotnet/20120923/style/image/avatar.jpg",,"1","2114-01-01 00:00:00","0","0","a9bf5c5460a1e0adf86b03ea8b4ce1e2",,"1","2","0","0","0","5000",,"1","0","0","0","0","2000-01-01 00:00:00",,"1","1","0","0","0","0","0","1","0",,"0","0"
"350","kokomax","lbhzslx@163.com","http://cdn.aixifan.com/dotnet/20120923/style/image/avatar.jpg",,"0","2012-02-20 00:00:00","0","1","5a2168cc1d4ffd106027aee78985e642",,"1","2","0","0","0","5009",,"1","0","0","0","0","2017-04-01 00:00:00",,"1","1","0","1","0","0","0","1","0",,"0","0"
"351","Night","tom@163.com","http://cdn.aixifan.com/dotnet/20120923/style/image/avatar.jpg",,"0","2111-06-03 00:00:00","0","0","3c086f596b4aee58e1d71b3626fefc87",,"1","2","0","0","0","5000",,"1","0","0","0","0","2016-09-01 00:00:00",,"1","1","0","0","0","0","0","1","0",,"0","0"
"352","MrGo0dbye","nuoyan8088@126.com","http://cdn.aixifan.com/dotnet/20120923/style/image/avatar.jpg",,"1","2114-01-01 00:00:00","0","0","e453d513547b9df3453a8abc784c0f7b","4PKhOR6WVSddpeD2MRkvfsPSs1hrbvDcmDI8AdUp7i50YbKuaz92jisSNtpxPvMZTRqiM4TKIF44MMWV4j1ffJBdwEO5DABny6t0py59aIblqwAHHD1N1VGANggqfMnJ","1","2","0","0","0","5000",,"1","0","0","0","0","2000-01-01 00:00:00",,"1","1","0","0","0","0","0","1","0",,"0","0"
"353","紫岚影月","zerollmd@yahoo.com.cn","http://cdn.aixifan.com/dotnet/20120923/style/image/avatar.jpg",,"1","2114-01-01 00:00:00","0","0","a11bd1a1cfdcde0468daa7a602dfb5ea",,"1","2","0","0","0","5000",,"1","0","0","0","0","2000-01-01 00:00:00",,"1","1","0","0","0","0","0","1","0",,"0","0"
"354","小小小小蚏.","xiaoyue.angelbady@qq.com","http://cdn.aixifan.com/dotnet/20120923/style/image/avatar.jpg",,"1","2114-01-01 00:00:00","0","0","4b21cb0d653dd87a34c7d5f213516c2a",,"1","2","0","0","0","5000",,"1","0","0","0","0","2000-01-01 00:00:00",,"1","1","0","0","0","0","0","1","0",,"0","0"
"355","sdfs","ctay@eyou.com","http://cdn.aixifan.com/dotnet/20120923/style/image/avatar.jpg",,"1","2114-01-01 00:00:00","0","0","d55502008a2c435b99be9bdefc0bb925",,"1","2","0","0","0","5000",,"1","0","0","0","0","2000-01-01 00:00:00",,"1","1","0","0","0","0","0","1","0",,"0","0"
"356","MAN-R","chrisicyman@163.com","http://cdn.aixifan.com/dotnet/20120923/style/image/avatar.jpg",,"1","2114-01-01 00:00:00","0","0","f49da3f63cc73fc26698242b52d96058",,"1","2","0","0","0","5000",,"1","0","0","0","0","2000-01-01 00:00:00",,"1","1","0","0","0","0","0","1","0",,"0","0"
"357","卡卡","zhuxpne@163.com","http://cdn.aixifan.com/dotnet/20120923/style/image/avatar.jpg",,"0","2111-06-03 00:00:00","0","0","8bbdbb8f7eeb7486395007ec8e430799",,"1","2","0","0","0","5000",,"1","0","0","0","0","2016-09-01 00:00:00",,"1","1","0","0","0","0","0","1","0",,"0","0"
"358","dearboy","233082689@qq.com","http://cdn.aixifan.com/dotnet/20120923/style/image/avatar.jpg",,"1","2114-01-01 00:00:00","0","0","aa6cd06f68a72618e815803ae2e4660b",,"1","2","0","0","0","5000",,"1","0","0","0","0","2000-01-01 00:00:00",,"1","1","0","0","0","0","0","1","0",,"0","0"
"359","雪夜","peilongchen@163.com","http://cdn.aixifan.com/dotnet/20120923/style/image/avatar.jpg",,"1","2114-01-01 00:00:00","0","0","41bc063fc00ab310c1da0ccd7b79c2ba",,"1","2","0","0","0","5000",,"1","0","0","0","0","2000-01-01 00:00:00",,"1","1","0","0","0","0","0","1","0",,"0","0"
"360","壞嚡籽","398704305@qq.com","http://cdn.aixifan.com/dotnet/20120923/style/image/avatar.jpg",,"1","2114-01-01 00:00:00","0","0","ed6f0d62860302efa4a98b934b3c2c4b",,"1","2","0","0","0","5000",,"1","0","0","0","0","2000-01-01 00:00:00",,"1","1","0","0","0","0","0","1","0",,"0","0"
"361","fhdddd","qvb67468319@qq.com","http://cdn.aixifan.com/dotnet/20120923/style/image/avatar.jpg",,"1","2114-01-01 00:00:00","0","0","4d0d2ad1bb26907b628ffadd7b761952",,"1","2","0","0","0","5000",,"1","0","0","0","0","2000-01-01 00:00:00",,"1","1","0","0","0","0","0","1","0",,"0","0"
"362","小小小小蚏.-R","xiaoyue.angelbady@qq.com","http://cdn.aixifan.com/dotnet/20120923/style/image/avatar.jpg",,"1","2114-01-01 00:00:00","0","0","4b21cb0d653dd87a34c7d5f213516c2a",,"1","2","0","0","0","5000",,"1","0","0","0","0","2000-01-01 00:00:00",,"1","1","0","0","0","0","0","1","0",,"0","0"
"363","註冊的時候在想什麽","26589597@qq.com","http://cdn.aixifan.com/dotnet/artemis/u/cms/www/201210/0515350289b2.jpg","我怎么知道你们註冊的時候在想什麽？","0","2012-02-20 00:00:00","0","1","7b595f91863221917cd4d576487ece7c",,"1","2","0","0","0","5003",,"1","0","0","0","0","2016-09-01 00:00:00",,"1","1","0","1","0","0","0","1","0",,"0","0"
"364","小小小小蚏.-Rv","xiaoyue.angelbady@qq.com","http://cdn.aixifan.com/dotnet/20120923/style/image/avatar.jpg",,"1","2114-01-01 00:00:00","0","0","4b21cb0d653dd87a34c7d5f213516c2a",,"1","2","0","0","0","5000",,"1","0","0","0","0","2000-01-01 00:00:00",,"1","1","0","0","0","0","0","1","0",,"0","0"
"365","且露锋芒","qlfm@surbeta.com","http://cdn.aixifan.com/dotnet/artemis/u/cms/www/201407/01221556hj2p.jpg","这个人很机智,什么都没有写...","0","2012-02-20 00:00:00","0","1","dbe1f73b7a1ff85d7e5718221dc34b82",,"1","5","0","1","0","5085",,"1","0","0","0","0","2016-09-01 00:00:00","13175062045","1","1","1","1","1","1","0","1","0",,"0","0"
"366","うずまきナルト","wxm2213355@qq.com","http://cdn.aixifan.com/dotnet/20120923/style/image/avatar.jpg",,"1","2114-01-01 00:00:00","0","0","e15884e8771fed7f54d346068b701cab",,"1","2","0","0","0","5003",,"1","0","0","0","0","2015-02-01 00:00:00",,"1","1","0","0","0","0","0","1","0",,"0","0"
"367","ckleung","dasjk@hotmail.com","http://cdn.aixifan.com/dotnet/20120923/style/image/avatar.jpg",,"1","2114-01-01 00:00:00","0","0","fa17ce37905c08238cefe2b0903d0a9d",,"1","2","0","0","0","5000",,"1","0","0","0","0","2000-01-01 00:00:00",,"1","1","0","0","0","0","0","1","0",,"0","0"
"368","mm","chenyiping518@126.com","http://cdn.aixifan.com/dotnet/20120923/style/image/avatar.jpg",,"1","2114-01-01 00:00:00","0","0","e8f94ac5f67b09914608b58a4ff843f4",,"1","2","0","0","0","5000",,"1","0","0","0","0","2000-01-01 00:00:00",,"1","1","0","0","0","0","0","1","0",,"0","0"
"369","坏坏de笨鸟","wujiaweisky@126.com","http://cdn.aixifan.com/dotnet/20120923/style/image/avatar.jpg",,"0","2012-02-20 00:00:00","0","0","6e4b0de7a310b37424678c0ac67d11c7",,"1","2","0","0","0","5000",,"1","0","0","0","0","2016-09-01 00:00:00",,"1","1","0","0","0","0","0","1","0",,"0","0"
"370","Daniel","04124787@163.com","http://cdn.aixifan.com/dotnet/20120923/style/image/avatar.jpg",,"0","2012-02-20 00:00:00","0","0","26ee696b7296a5c49f2111f581960427",,"1","2","0","0","0","5000",,"1","0","0","0","0","2016-09-01 00:00:00",,"1","1","0","0","0","0","0","1","0",,"0","0"
"371","hiahiaxiang","friendgong@163.com","http://cdn.aixifan.com/dotnet/20120923/style/image/avatar.jpg",,"1","2114-01-01 00:00:00","0","0","c5c3754dfe052d0947d33aeb4c22f0c2",,"1","2","0","0","0","5003",,"1","0","0","0","0","2000-01-01 00:00:00",,"1","1","0","0","0","0","0","1","0",,"0","0"
"372","FF","ykf3192127@163.com","http://cdn.aixifan.com/dotnet/artemis/u/cms/www/201206/17234219vnyr.jpg",,"0","2017-03-21 00:00:00","0","1","f76d49da12df373c6647df54c061c80d","ZDlmv4Ja6BrRVS8XpnDDSu2TcO0Bzc1tMGGHgzhjRQfo54pqDMRLR5B0pVZycHIyC7WqrTz5ZjbwEWKSVRyaYOCdwlzHkxJLBMp82WYE8uYvhpkN4IrnkHs7LqLZJLLN","1","2","0","0","0","5611",,"1","0","0","0","0","2017-11-01 00:00:00","18149289759","1","1","1","1","1","1","0","0","0",,"0","0"
"373","克雷泽尔","sdjflksjd@sina.com","http://cdn.aixifan.com/dotnet/20120923/style/image/avatar.jpg",,"1","2114-01-01 00:00:00","0","0","595a3c3640266d780bc6f604c6ce773a",,"1","2","0","0","0","5000",,"1","0","0","0","0","2000-01-01 00:00:00",,"1","1","0","0","0","0","0","1","0",,"0","0"
"374","难得想","114142098@qq.com","http://cdn.aixifan.com/dotnet/20120923/style/image/avatar.jpg",,"0","2111-06-03 00:00:00","0","1","a0250599eb4139ccc18b6121957e588a",,"1","2","0","0","0","5013",,"1","0","0","0","0","2016-09-01 00:00:00",,"1","1","0","1","0","0","0","1","0",,"0","0"
"375","the sun","jlyx2304@yahoo.com","http://cdn.aixifan.com/dotnet/20120923/style/image/avatar.jpg",,"1","2114-01-01 00:00:00","0","0","9c8314cfd1bca5fd4c44c9961f15d085",,"1","2","0","0","0","5000",,"1","0","0","0","0","2000-01-01 00:00:00",,"1","1","0","0","0","0","0","1","0",,"0","0"
"376","nikky","nikkyquan@yahoo.com","http://cdn.aixifan.com/dotnet/20120923/style/image/avatar.jpg",,"1","2114-01-01 00:00:00","0","0","02a9ea4c38c9ff5dc364345005a0a63b",,"1","2","0","0","0","5000",,"1","0","0","0","0","2000-01-01 00:00:00",,"1","1","0","0","0","0","0","1","0",,"0","0"
"377","海盗头头","jinshanzou@163.com","http://cdn.aixifan.com/dotnet/20120923/style/image/avatar.jpg",,"1","2114-01-01 00:00:00","0","0","121a4a5ef15c68f055fc3b7ddd55d9a5",,"1","2","0","0","0","5000",,"1","0","0","0","0","2000-01-01 00:00:00",,"1","1","0","0","0","0","0","1","0",,"0","0"
"378","banana","www.sky@yahoo.com","http://cdn.aixifan.com/dotnet/20120923/style/image/avatar.jpg",,"1","2114-01-01 00:00:00","0","0","60cf56b5453d3713b2b3c7d70e2f6239",,"1","2","0","0","0","5000",,"1","0","0","0","0","2000-01-01 00:00:00",,"1","1","0","0","0","0","0","1","0",,"0","0"
"379","long","long035@163.com","http://cdn.aixifan.com/dotnet/20120923/style/image/avatar.jpg",,"1","2114-01-01 00:00:00","0","0","ac8b8c16cb70926447d85a43abb2c729",,"1","2","0","0","0","5000",,"1","0","0","0","0","2000-01-01 00:00:00",,"1","1","0","0","0","0","0","1","0",,"0","0"
"380","yongyuan ","329440896@qq.com","http://cdn.aixifan.com/dotnet/20120923/style/image/avatar.jpg",,"1","2114-01-01 00:00:00","0","0","b58142fa2699283b197bb51cd01a574e",,"1","2","0","0","0","5000",,"1","0","0","0","0","2000-01-01 00:00:00",,"1","1","0","0","0","0","0","1","0",,"0","0"
"381","时空锚点在那年夏天","id.npc@qq.com","http://cdn.aixifan.com/dotnet/artemis/u/cms/www/201612/22123300p2uch0we.jpg","http://pan.baidu.com/share/home?uk=880576951","0","2999-01-01 00:00:00","0","1","c6d9f426712aa430387237a4cad27d12","dPbXJkHnkyORVVAo6n9VuJwjMt81cevUrPREJXyjKm66ychSanrMwrkgKg1WF2vR8fQjVEI2S8AAWiKuhksqYOdLXKzcLTDhKJ0SRn01546sdkAQIbdtW76ldbCKsXk2","1","0","0","0","0","9897",,"1","0","140","0","0","2017-11-01 00:00:00","13704055431","1","1","1","1","0","0","0","1","0",,"0","0"
"382","c4kabuto","264819693@qq.com","http://cdn.aixifan.com/dotnet/20120923/style/image/avatar.jpg",,"0","2111-06-03 00:00:00","0","0","987c5d69855195e040faec25dfa1f5dd","akGJuS5gZT0AnQjJIBobswejwqBTCjCe60IIpjjIzee3VnW7qywLtZbDz9aZA7mx9hbQ92iNgCUB9jlxULWc5d06KuYlI5tQDspmHEJoXf8EEv0VPEkBEHnYU7zEo4zv","1","2","0","0","0","5000",,"1","0","0","0","0","2016-09-01 00:00:00",,"1","1","0","0","0","0","0","1","0",,"0","0"
"383","泡沫·痕迹","gongdianbin@yahoo.com.cn ","http://cdn.aixifan.com/dotnet/20120923/style/image/avatar.jpg",,"1","2114-01-01 00:00:00","0","0","d159bfbbcfe2bd1de853174d9656e51b",,"1","2","0","0","0","5000",,"1","0","0","0","0","2000-01-01 00:00:00",,"1","1","0","0","0","0","0","1","0",,"0","0"
"384","紫樱圣雪","359787377@qq.net","http://cdn.aixifan.com/dotnet/20120923/style/image/avatar.jpg",,"0","2111-06-03 00:00:00","0","0","012693b3235b72e07139fd7252f4a190",,"1","2","0","0","0","5000",,"1","0","0","0","0","2016-09-01 00:00:00",,"1","1","0","0","0","0","0","1","0",,"0","0"
"385","雪域小浪","zhoujixiang1983@163.com","http://cdn.aixifan.com/dotnet/20120923/style/image/avatar.jpg",,"1","2114-01-01 00:00:00","0","0","1cdd54976745169a2aeb4f924f3b6d3d",,"1","2","0","0","0","5000",,"1","0","0","0","0","2000-01-01 00:00:00",,"1","1","0","0","0","0","0","1","0",,"0","0"
"386","小n","ccj@sina.com","http://cdn.aixifan.com/dotnet/20120923/style/image/avatar.jpg",,"1","2114-01-01 00:00:00","0","0","ee561eff2ca07752075fec13976534bf",,"1","2","0","0","0","5000",,"1","0","0","0","0","2000-01-01 00:00:00",,"1","1","0","0","0","0","0","1","0",,"0","0"
"387","朔月","mql20088@163.com","http://cdn.aixifan.com/dotnet/20120923/style/image/avatar.jpg",,"1","2114-01-01 00:00:00","0","0","a431fbe79ff2358abb551297178090ff",,"1","2","0","0","0","5000",,"1","0","0","0","0","2000-01-01 00:00:00",,"1","1","0","0","0","0","0","1","0",,"0","0"
"388","小小小小蚏.-R3","<xiaoyue.angelbady@qq.com","http://cdn.aixifan.com/dotnet/20120923/style/image/avatar.jpg",,"1","2114-01-01 00:00:00","0","0","4b21cb0d653dd87a34c7d5f213516c2a",,"1","2","0","0","0","5000",,"1","0","0","0","0","2000-01-01 00:00:00",,"1","1","0","0","0","0","0","1","0",,"0","0"
"389","小醜鴨.","xiaoyue.angelbady@qq.com","http://cdn.aixifan.com/dotnet/20120923/style/image/avatar.jpg",,"1","2114-01-01 00:00:00","0","0","4b21cb0d653dd87a34c7d5f213516c2a",,"1","2","0","0","0","5000",,"1","0","0","0","0","2000-01-01 00:00:00",,"1","1","0","0","0","0","0","1","0",,"0","0"
"390","大<Claymore>剑","lijinyu0525@163.com","http://cdn.aixifan.com/dotnet/20120923/style/image/avatar.jpg",,"1","2114-01-01 00:00:00","0","0","ad837d66df0784c5537ab3be547f9056",,"1","2","0","0","0","5000",,"1","0","0","0","0","2000-01-01 00:00:00",,"1","1","0","0","0","0","0","1","0",,"0","0"
"391","坏坏kan动漫","wujiaweisky@126.com","http://cdn.aixifan.com/dotnet/20120923/style/image/avatar.jpg",,"1","2114-01-01 00:00:00","0","0","6e4b0de7a310b37424678c0ac67d11c7",,"1","2","0","0","0","5000",,"1","0","0","0","0","2000-01-01 00:00:00",,"1","1","0","0","0","0","0","1","0",,"0","0"
"392","手套","xw-w@163.com","http://cdn.aixifan.com/dotnet/20120923/style/image/avatar.jpg",,"1","2114-01-01 00:00:00","0","0","778eafb6b7848b88b1371d5a9d5b82ba",,"1","2","0","0","0","5000",,"1","0","0","0","0","2000-01-01 00:00:00",,"1","1","0","0","0","0","0","1","0",,"0","0"
"393","1瞬间的幸福","1shandong1@163.com","http://cdn.aixifan.com/dotnet/20120923/style/image/avatar.jpg",,"1","2114-01-01 00:00:00","0","0","56f1c5c4f9cba45d44e3b10ef1e86a4e",,"1","2","0","0","0","5000",,"1","0","0","0","0","2000-01-01 00:00:00",,"1","1","0","0","0","0","0","1","0",,"0","0"
"394","邪恶领主毛毛","316980362@qq.com","http://cdn.aixifan.com/dotnet/20120923/style/image/avatar.jpg",,"1","2114-01-01 00:00:00","0","0","cebd1f613a73bf76a10ba087573d9886",,"1","2","0","0","0","5000",,"1","0","0","0","0","2000-01-01 00:00:00",,"1","1","0","0","0","0","0","1","0",,"0","0"
"395","lynn","lynn7072@sina.com","http://cdn.aixifan.com/dotnet/20120923/style/image/avatar.jpg",,"1","2114-01-01 00:00:00","0","0","dc085ecbf15630dbbc2b998db2e13f2f",,"1","2","0","0","0","5000",,"1","0","0","0","0","2000-01-01 00:00:00",,"1","1","0","0","0","0","0","1","0",,"0","0"
"396","Kulea","1130364@sina.com","http://cdn.aixifan.com/dotnet/artemis/u/cms/www/201609/06234101mm1yj9aj.jpg",,"0","2111-06-03 00:00:00","0","1","da3db3c34cd20758f9ab6607545898bf","Im6oXfej8Tc9zZ7d27hkgJIColgvVCEdjEPwnzxt30XzjoKuJaJSK9bJAWW4IIyWuEA3nZTldhSiv78Un9DwYr3Vjrinas4dKsniVaEACt5LfWpgICUbIJClQtMYB9uH","1","37","0","7","0","6831",,"1","0","3","0","227","2017-09-01 00:00:00","15851722190","1","1","1","0","1","1","0","1","0",,"0","0"
"397","萧邦","asd19661203@163.com","http://cdn.aixifan.com/dotnet/20120923/style/image/avatar.jpg",,"1","2114-01-01 00:00:00","0","0","b1463c3c808879b9cad954f1930d3b47",,"1","2","0","0","0","5000",,"1","0","0","0","0","2000-01-01 00:00:00",,"1","1","0","0","0","0","0","1","0",,"0","0"
"398","造飞机的工厂","freeway2002.2@163.com","http://cdn.aixifan.com/dotnet/20120923/style/image/avatar.jpg",,"1","2114-01-01 00:00:00","0","0","431c5d3caccd7cb54007eb28162b5f91",,"1","2","0","0","0","5000",,"1","0","0","0","0","2000-01-01 00:00:00",,"1","1","0","0","0","0","0","1","0",,"0","0"
"399","相思雨","aidjiusni.220@163.co","http://cdn.aixifan.com/dotnet/20120923/style/image/avatar.jpg",,"1","2114-01-01 00:00:00","0","0","eaaeddc37e21f9aa8e01a09b10ece8b7",,"1","2","0","0","0","5000",,"1","0","0","0","0","2000-01-01 00:00:00",,"1","1","0","0","0","0","0","1","0",,"0","0"
"400","蟲寶寶","zmc_1616@hotmail.com","http://cdn.aixifan.com/dotnet/20120923/style/image/avatar.jpg",,"1","2114-01-01 00:00:00","0","0","77d05119fe51966fdd15bf5d727c087e",,"1","2","0","0","0","5000",,"1","0","0","0","0","2000-01-01 00:00:00",,"1","1","0","0","0","0","0","1","0",,"0","0"
"401","病猫","xiaoyuyue@126.com","http://cdn.aixifan.com/dotnet/20120923/style/image/avatar.jpg",,"1","2114-01-01 00:00:00","0","0","72e034c95153c2839ebfb745bf8a127d",,"1","2","0","0","0","5000",,"1","0","0","0","0","2000-01-01 00:00:00",,"1","1","0","0","0","0","0","1","0",,"0","0"
"402","feifeifei","lshbonnie@sina.com.cn","http://cdn.aixifan.com/dotnet/20120923/style/image/avatar.jpg",,"1","2114-01-01 00:00:00","0","0","0c122e32411f81ca7f37cf1827868190",,"1","2","0","0","0","5000",,"1","0","0","0","0","2000-01-01 00:00:00",,"1","1","0","0","0","0","0","1","0",,"0","0"
"403","see lo","454541328@qq.com","http://cdn.aixifan.com/dotnet/20120923/style/image/avatar.jpg",,"1","2114-01-01 00:00:00","0","0","0d437b772b88c344fa958c2b67fc95cc",,"1","2","0","0","0","5000",,"1","0","0","0","0","2000-01-01 00:00:00",,"1","1","0","0","0","0","0","1","0",,"0","0"
"404","古木","gumuluozhi@163.com","http://cdn.aixifan.com/dotnet/20120923/style/image/avatar.jpg",,"1","2114-01-01 00:00:00","0","0","9c3eea6bbd126e95d3437148474493ef",,"1","2","0","0","0","5000",,"1","0","0","0","0","2000-01-01 00:00:00",,"1","1","0","0","0","0","0","1","0",,"0","0"
"405","凉白开","libiao2590@tom.com","http://cdn.aixifan.com/dotnet/20120923/style/image/avatar.jpg",,"1","2114-01-01 00:00:00","0","0","3e987282bfec1569f9b7a28ac6503f27","kbJoXhKIQSVWfIrtAwDQAHzLnjoqkhOEE5aW6ItfOd9dh9nvUkL9ll3MqAS7KNWwczl4WUkGvooY6U8HmYJBQrlGFqFpSKsdmL7oUcto1tzDYLJ28rAyEWys4le5OxPc","1","2","0","0","0","5000",,"1","0","0","0","0","2000-01-01 00:00:00",,"1","1","0","0","0","0","0","1","0",,"0","0"
"406","紫荆","ywhzdy@126.com","http://cdn.aixifan.com/dotnet/20120923/style/image/avatar.jpg",,"1","2114-01-01 00:00:00","0","0","b726016a803c8096752a1c083ebfba87",,"1","2","0","0","0","5000",,"1","0","0","0","0","2000-01-01 00:00:00",,"1","1","0","0","0","0","0","1","0",,"0","0"
"407","moshengcat","moshengcat@eyou.com","http://cdn.aixifan.com/dotnet/20120923/style/image/avatar.jpg",,"1","2114-01-01 00:00:00","0","0","88ed568f2e8a0284869ea055590516a2",,"1","2","0","0","0","5000",,"1","0","0","0","0","2000-01-01 00:00:00",,"1","1","0","0","0","0","0","1","0",,"0","0"
"408","ying","bbq12bbq@163.com","http://cdn.aixifan.com/dotnet/20120923/style/image/avatar.jpg",,"1","2114-01-01 00:00:00","0","0","a541a7c9ea6bf8735894ef7ca9a78a0b",,"1","2","0","0","0","5000",,"1","0","0","0","0","2000-01-01 00:00:00",,"1","1","0","0","0","0","0","1","0",,"0","0"
"409","PP","yangkai7725@hotmail.com","http://cdn.aixifan.com/dotnet/20120923/style/image/avatar.jpg",,"0","2012-02-20 00:00:00","0","1","83435c2dc5e15e226d81c4bce95ff897",,"1","2","0","0","0","5000",,"1","0","0","0","0","2016-09-01 00:00:00",,"1","1","0","1","0","0","0","1","0",,"0","0"
"410","水世界  主","jianlingap2163.com","http://cdn.aixifan.com/dotnet/20120923/style/image/avatar.jpg",,"1","2114-01-01 00:00:00","0","0","9ab55a8e726fe9a29fe116a01967f80c",,"1","2","0","0","0","5000",,"1","0","0","0","0","2000-01-01 00:00:00",,"1","1","0","0","0","0","0","1","0",,"0","0"
"411","ぬ灬兒ジ戲ミ","yanghua@tom.com","http://cdn.aixifan.com/dotnet/20120923/style/image/avatar.jpg",,"1","2114-01-01 00:00:00","0","0","7b8358de00156bf05396e3973c86a798",,"1","2","0","0","0","5000",,"1","0","0","0","0","2000-01-01 00:00:00",,"1","1","0","0","0","0","0","1","0",,"0","0"
"412","伊","zu13509@21cn.com","http://cdn.aixifan.com/dotnet/20120923/style/image/avatar.jpg",,"1","2114-01-01 00:00:00","0","0","09b4ebf292d1855da3da4e0b9005b647",,"1","2","0","0","0","5000",,"1","0","0","0","0","2000-01-01 00:00:00",,"1","1","0","0","0","0","0","1","0",,"0","0"
"413","qwe","alan.luan@163.com","http://cdn.aixifan.com/dotnet/20120923/style/image/avatar.jpg",,"0","2111-06-03 00:00:00","0","0","9ae0147d65724f72f74804af4aac6f13",,"1","2","0","0","0","5000",,"1","0","0","0","0","2016-09-01 00:00:00",,"1","1","0","0","0","0","0","1","0",,"0","0"
"414",".*`小豪.*`","445092415@qq.com","http://cdn.aixifan.com/dotnet/20120923/style/image/avatar.jpg",,"1","2114-01-01 00:00:00","0","0","119ee1950a654db66b861722d28ce5de",,"1","2","0","0","0","5000",,"1","0","0","0","0","2000-01-01 00:00:00",,"1","1","0","0","0","0","0","1","0",,"0","0"
"415","BB","7878@163.COM","http://cdn.aixifan.com/dotnet/20120923/style/image/avatar.jpg",,"1","2114-01-01 00:00:00","0","0","9e2a416e7439035a955231df9e7178cd",,"1","2","0","0","0","5003",,"1","0","0","0","0","2000-01-01 00:00:00",,"1","1","0","0","0","0","0","1","0",,"0","0"
"416","FF-R","787@163.COM","http://cdn.aixifan.com/dotnet/20120923/style/image/avatar.jpg",,"1","2114-01-01 00:00:00","0","0","9e2a416e7439035a955231df9e7178cd",,"1","2","0","0","0","5000",,"1","0","0","0","0","2000-01-01 00:00:00",,"1","1","0","0","0","0","0","1","0",,"0","0"
"417","大鸟","adasanda2002@163.com","http://cdn.aixifan.com/dotnet/20120923/style/image/avatar.jpg",,"1","2114-01-01 00:00:00","0","0","f54202d6b4c78cc7c930cb638fd0befb",,"1","2","0","0","0","5000",,"1","0","0","0","0","2000-01-01 00:00:00",,"1","1","0","0","0","0","0","1","0",,"0","0"
"418","J._C","szn_1022@163.com","http://cdn.aixifan.com/dotnet/20120923/style/image/avatar.jpg",,"0","2012-02-20 00:00:00","0","1","5bdec58b00009fbb6bb37ba4d36d31b7",,"1","2","0","0","0","6285",,"1","0","0","0","0","2016-09-01 00:00:00",,"1","1","0","1","0","0","0","1","0",,"0","0"
"419","0","812052863qq.com","http://cdn.aixifan.com/dotnet/20120923/style/image/avatar.jpg",,"0","2012-02-20 00:00:00","0","0","ba770d776f3886d1b1edc360331a0413",,"1","2","0","0","0","5000",,"1","0","0","0","0","2016-09-01 00:00:00",,"1","1","0","0","0","0","0","1","0",,"0","0"
"420","哈哈-R","linsoulwolf@yahoo.com.cn","http://cdn.aixifan.com/dotnet/20120923/style/image/avatar.jpg",,"1","2114-01-01 00:00:00","0","0","7443e849a75b3325619abd4a6dc1e01d",,"1","2","0","0","0","5000",,"1","0","0","0","0","2000-01-01 00:00:00",,"1","1","0","0","0","0","0","1","0",,"0","0"
"421","小D","chendi1212@qq.com","http://cdn.aixifan.com/dotnet/20120923/style/image/avatar.jpg",,"1","2114-01-01 00:00:00","0","0","4cb3b22b442f57c222293dab60cd4458",,"1","2","0","0","0","5000",,"1","0","0","0","0","2000-01-01 00:00:00",,"1","1","0","0","0","0","0","1","0",,"0","0"
"422","￡奇ぎ讶♀","kulapika123.cool63.com","http://cdn.aixifan.com/dotnet/20120923/style/image/avatar.jpg",,"1","2114-01-01 00:00:00","0","0","102cff831cf72b77a6a0304d403b5593",,"1","2","0","0","0","5000",,"1","0","0","0","0","2000-01-01 00:00:00",,"1","1","0","0","0","0","0","1","0",,"0","0"
"423","英雄","597762206@qq.com","http://cdn.aixifan.com/dotnet/20120923/style/image/avatar.jpg",,"1","2114-01-01 00:00:00","0","0","a0c5341629a87bdfbc355efeafdfba8e",,"1","2","0","0","0","5000",,"1","0","0","0","0","2000-01-01 00:00:00",,"1","1","0","0","0","0","0","1","0",,"0","0"
"424","哗","lg46606@163.com","http://cdn.aixifan.com/dotnet/20120923/style/image/avatar.jpg",,"1","2114-01-01 00:00:00","0","0","2b6da6092f93450493beec6d5a778351",,"1","2","0","0","0","5000",,"1","0","0","0","0","2000-01-01 00:00:00",,"1","1","0","0","0","0","0","1","0",,"0","0"
"425","。殇の卟归","btkk@sina.com","http://cdn.aixifan.com/dotnet/20120923/style/image/avatar.jpg",,"1","2114-01-01 00:00:00","0","0","b1af536cc8de3487a20bdd3453384a35",,"1","2","0","0","0","5000",,"1","0","0","0","0","2000-01-01 00:00:00",,"1","1","0","0","0","0","0","1","0",,"0","0"
"426","shushu","shuxiaolin1986@163.com","http://cdn.aixifan.com/dotnet/20120923/style/image/avatar.jpg",,"1","2114-01-01 00:00:00","0","0","d6995d8794b807e3c5c0952b173ae352",,"1","2","0","0","0","5000",,"1","0","0","0","0","2000-01-01 00:00:00",,"1","1","0","0","0","0","0","1","0",,"0","0"
"427","迷火影","403648214@qq.com","http://cdn.aixifan.com/dotnet/20120923/style/image/avatar.jpg",,"1","2114-01-01 00:00:00","0","0","58ae6f743c8f574d505e8104bc76cd3d",,"1","2","0","0","0","5000",,"1","0","0","0","0","2000-01-01 00:00:00",,"1","1","0","0","0","0","0","1","0",,"0","0"
"428","yanglian","yanglian@163.com","http://cdn.aixifan.com/dotnet/20120923/style/image/avatar.jpg",,"0","2012-02-20 00:00:00","0","0","b3ab790b6a33b5b4a264c2c0e8cdefb7",,"1","2","0","0","0","5000",,"1","0","0","0","0","2016-09-01 00:00:00",,"1","1","0","0","0","0","0","1","0",,"0","0"
"429","永远白","382508437@qq.com","http://cdn.aixifan.com/dotnet/20120923/style/image/avatar.jpg",,"1","2114-01-01 00:00:00","0","0","c8924cf521afdce422cc608df8fb0de1",,"1","2","0","0","0","5000",,"1","0","0","0","0","2000-01-01 00:00:00",,"1","1","0","0","0","0","0","1","0",,"0","0"
"430","-[,遺忘/愛]","soso_86@163.com","http://cdn.aixifan.com/dotnet/20120923/style/image/avatar.jpg",,"1","2114-01-01 00:00:00","0","0","19aae2c3aa13f4ec69c9ea9ae0a58a40",,"1","2","0","0","0","5000",,"1","0","0","0","0","2000-01-01 00:00:00",,"1","1","0","0","0","0","0","1","0",,"0","0"
"431","不死せ之身","huruihaohao@qq.com","http://cdn.aixifan.com/dotnet/20120923/style/image/avatar.jpg",,"1","2114-01-01 00:00:00","0","0","c69e2055d36ebfea1562bb18521dede8",,"1","2","0","0","0","5000",,"1","0","0","0","0","2000-01-01 00:00:00",,"1","1","0","0","0","0","0","1","0",,"0","0"
"432","漫画 狂人","swm820913@hotmail.com","http://cdn.aixifan.com/dotnet/20120923/style/image/avatar.jpg",,"1","2114-01-01 00:00:00","0","0","1d849fbe0dc5f1fb712d3f0077b9ab35",,"1","2","0","0","0","5000",,"1","0","0","0","0","2000-01-01 00:00:00",,"1","1","0","0","0","0","0","1","0",,"0","0"
"433","星辰or陨落","525829420@qq","http://cdn.aixifan.com/dotnet/20120923/style/image/avatar.jpg",,"1","2114-01-01 00:00:00","0","0","d55b4ac9462e31774163da68506c1ddd",,"1","2","0","0","0","5000",,"1","0","0","0","0","2000-01-01 00:00:00",,"1","1","0","0","0","0","0","1","0",,"0","0"
"434","n","t@163.com","http://cdn.aixifan.com/dotnet/20120923/style/image/avatar.jpg",,"1","2099-12-31 23:59:01","0","0","2e57f6c051b9c0d8ba0a30b62090aa55",,"1","2","0","0","0","5000",,"1","0","0","0","0","2016-09-01 00:00:00",,"1","1","0","0","0","0","0","1","0",,"0","0"
"435","凉风づ濠","tianhao@qq163.com","http://cdn.aixifan.com/dotnet/20120923/style/image/avatar.jpg",,"0","2111-06-03 00:00:00","0","0","142f3bed7cf6112ca1194a5c49d9d078",,"1","2","0","0","0","5010",,"1","0","0","0","0","2016-09-01 00:00:00",,"1","1","0","0","0","0","0","1","0",,"0","0"
"436","Gaey","gaey812@yahoo.com.cn","http://cdn.aixifan.com/dotnet/20120923/style/image/avatar.jpg",,"1","2114-01-01 00:00:00","0","0","210b229a69aadb6be70d21e48a35375c",,"1","2","0","0","0","5000",,"1","0","0","0","0","2000-01-01 00:00:00",,"1","1","0","0","0","0","0","1","0",,"0","0"
"437","石头","tcshenshi@163.com","http://cdn.aixifan.com/dotnet/20120923/style/image/avatar.jpg",,"1","2114-01-01 00:00:00","0","0","b425f03b6f9dd7c65fb2c4ece4993765",,"1","2","0","0","0","5000",,"1","0","0","0","0","2000-01-01 00:00:00",,"1","1","0","0","0","0","0","1","0",,"0","0"
"438","远方的风","qian_yudong@163.com","http://cdn.aixifan.com/dotnet/20120923/style/image/avatar.jpg",,"0","2012-02-20 00:00:00","0","0","682d8eaf3d246cf3218a5b4230e6e40b",,"1","2","0","0","0","5000",,"1","0","0","0","0","2016-09-01 00:00:00",,"1","1","0","0","0","0","0","1","0",,"0","0"
"439","习惯孤独","395711863@QQ.com","http://cdn.aixifan.com/dotnet/20120923/style/image/avatar.jpg",,"1","2114-01-01 00:00:00","0","0","f4c57ed7eb34be1e344adc5fde1e7431",,"1","2","0","0","0","5000",,"1","0","0","0","0","2000-01-01 00:00:00",,"1","1","0","0","0","0","0","1","0",,"0","0"
"440","萧沐枫","gyhuangshuai@sina.com","http://cdn.aixifan.com/dotnet/20120923/style/image/avatar.jpg",,"1","2114-01-01 00:00:00","0","0","8d3974d3b481cce54c1efa0c4f8c3593",,"1","2","0","0","0","5000",,"1","0","0","0","0","2000-01-01 00:00:00",,"1","1","0","0","0","0","0","1","0",,"0","0"
"441","睇得开心","290510286@qq.com","http://cdn.aixifan.com/dotnet/20120923/style/image/avatar.jpg",,"1","2114-01-01 00:00:00","0","0","e0bdfe7ea1ccb3f4271459614f5964bc",,"1","2","0","0","0","5000",,"1","0","0","0","0","2000-01-01 00:00:00",,"1","1","0","0","0","0","0","1","0",,"0","0"
"442","SeraPhantaSM","zhouzhisheng@126.com","http://cdn.aixifan.com/dotnet/20120923/style/image/avatar.jpg",,"0","2111-06-03 00:00:00","0","1","ca3adaa70282ba1d8c7c6b412c6bd357","TcxVXq55AWfRE95x6mFrxsDYJzEAviBeFJwkwV7BjkTG9yq5Hqt2nnq5OkksN6tBzEALcb9thti9GGIyX3mGIVhfnissBUePjUdVjK5QgHWldp1lxchSHSHaHfmXLNeo","1","3","0","0","0","5139",,"1","0","0","0","0","2017-08-01 00:00:00",,"1","1","0","1","0","0","0","0","0",,"0","0"
"443","明明","eva511204@yahoo.com","http://cdn.aixifan.com/dotnet/20120923/style/image/avatar.jpg",,"1","2114-01-01 00:00:00","0","0","2adb359e1f1a9997be67fdc73de0548e",,"1","2","0","0","0","5003",,"1","0","0","0","0","2015-02-01 00:00:00",,"1","1","0","0","0","0","0","1","0",,"0","0"
"444","我爱的人","dengchengjun@163.com","http://cdn.aixifan.com/dotnet/20120923/style/image/avatar.jpg",,"1","2114-01-01 00:00:00","0","0","e10adc3949ba59abbe56e057f20f883e",,"1","2","0","0","1","6425",,"1","0","0","0","0","2016-09-01 00:00:00",,"1","1","0","0","0","0","0","1","0",,"0","0"
"446","追求恋爱","realwangyanan@163.com","http://cdn.aixifan.com/dotnet/20120923/style/image/avatar.jpg",,"1","2114-01-01 00:00:00","0","0","ff9dd4aebf4abaa7b730312cda3419bf",,"1","2","0","0","0","5000",,"1","0","0","0","0","2000-01-01 00:00:00",,"1","1","0","0","0","0","0","1","0",,"0","0"
"447","大毛毛","ilikemymother@163.com","http://cdn.aixifan.com/dotnet/20120923/style/image/avatar.jpg",,"1","2114-01-01 00:00:00","0","0","03e104228d3655c8a81a2e18831a955b",,"1","2","0","0","0","5000",,"1","0","0","0","0","2000-01-01 00:00:00",,"1","1","0","0","0","0","0","1","0",,"0","0"
"448","cxq","asf@asd.com","http://cdn.aixifan.com/dotnet/20120923/style/image/avatar.jpg",,"1","2114-01-01 00:00:00","0","0","ea6d591f71e01bd3cebbcc22524e4d7b",,"1","2","0","0","0","5030",,"1","0","0","0","0","2017-08-01 00:00:00",,"1","1","0","0","0","0","0","1","0",,"0","0"
"449","scnuchina","scnuchina@gmail.com","http://cdn.aixifan.com/dotnet/20120923/style/image/avatar.jpg",,"0","2111-06-03 00:00:00","0","0","ddc1a249c3bdfd600757b858c141936a",,"1","2","0","0","0","5000",,"1","0","0","0","0","2016-09-01 00:00:00",,"1","1","0","0","0","0","0","1","0",,"0","0"
"450","lovecartoon","fedek2008@21cn.com","http://cdn.aixifan.com/dotnet/20120923/style/image/avatar.jpg",,"0","2111-06-03 00:00:00","0","0","e10adc3949ba59abbe56e057f20f883e",,"1","2","0","0","1","6419",,"1","0","0","0","0","2016-09-01 00:00:00",,"1","1","0","0","0","0","0","1","0",,"0","0"
"451","惟我独尊","choihong1@hotmail.com","http://cdn.aixifan.com/dotnet/20120923/style/image/avatar.jpg",,"1","2114-01-01 00:00:00","0","0","fa37d14e1f4a9aa53e170f0432719725",,"1","2","0","0","0","5000",,"1","0","0","0","0","2000-01-01 00:00:00",,"1","1","0","0","0","0","0","1","0",,"0","0"
"452","燃烧流氓王","hbcylb@126.com","http://cdn.aixifan.com/dotnet/20120923/style/image/avatar.jpg",,"0","2114-01-01 00:00:00","0","1","3f412f0803597eede7c2116c93b9c518","vRLqPm3nB5g1peBKmmN0IphYlBppFepFFdeDkPYxKKaCQ0or5ALCMnfWsZSFc6Ovz6piNnfNnXqMVQATedDEPU8py9DMdqdIRHlYIfsEpUVs7hbQf7GR6zhiQht6MobC","1","3","0","0","0","10843",,"1","0","10","0","23","2017-11-01 00:00:00",,"1","1","0","1","0","21","0","1","0",,"0","0"
"453","-Air-ness","ttyuxinglei@sohu.com","http://cdn.aixifan.com/dotnet/20120923/style/image/avatar.jpg",,"1","2114-01-01 00:00:00","0","0","1c7c0f50ae4482e24359824f96f88f99",,"1","2","0","0","0","5000",,"1","0","0","0","0","2000-01-01 00:00:00",,"1","1","0","0","0","0","0","1","0",,"0","0"
"454","按时的","www.cctv@wxm.com","http://cdn.aixifan.com/dotnet/20120923/style/image/avatar.jpg",,"1","2114-01-01 00:00:00","0","0","c3402e0351763c8fdf76d18cd603ebdb",,"1","2","0","0","0","5000",,"1","0","0","0","0","2000-01-01 00:00:00",,"1","1","0","0","0","0","0","1","0",,"0","0"
"455","狼","wmyng9912345@qq.com","http://cdn.aixifan.com/dotnet/20120923/style/image/avatar.jpg",,"1","2114-01-01 00:00:00","0","0","e1933db48a5160af77a3a3acea7128cd",,"1","2","0","0","0","5000",,"1","0","0","0","0","2000-01-01 00:00:00",,"1","1","0","0","0","0","0","1","0",,"0","0"
"456","night-R","1@163.com","http://cdn.aixifan.com/dotnet/20120923/style/image/avatar.jpg",,"0","2012-02-20 00:00:00","0","0","ef4313be8a401892463ec35888aa1dbd",,"1","2","0","0","0","5000",,"1","0","0","0","0","2016-09-01 00:00:00",,"1","1","0","0","0","0","0","1","0",,"0","0"
"457","小毛","hehu1978@sohu.com","http://cdn.aixifan.com/dotnet/20120923/style/image/avatar.jpg",,"1","2114-01-01 00:00:00","0","0","f57fd5124a67874fabf720eec515c457",,"1","2","0","0","0","5000",,"1","0","0","0","0","2000-01-01 00:00:00",,"1","1","0","0","0","0","0","1","0",,"0","0"
"458","绝恋冬冬","wuxiaodong193344@sina.com","http://cdn.aixifan.com/dotnet/20120923/style/image/avatar.jpg",,"1","2114-01-01 00:00:00","0","0","ec647fcc2c79adb20462db49ead6bdbd",,"1","2","0","0","0","5000",,"1","0","0","0","0","2000-01-01 00:00:00",,"1","1","0","0","0","0","0","1","0",,"0","0"
"459","﹎靜かな夜に","suzijian123@163.com","http://cdn.aixifan.com/dotnet/20120923/style/image/avatar.jpg",,"1","2114-01-01 00:00:00","0","0","53c91501cf43e913e8345437bb258474",,"1","2","0","0","0","5000",,"1","0","0","0","0","2000-01-01 00:00:00",,"1","1","0","0","0","0","0","1","0",,"0","0"
"460","8E6DCCBB815D45D1AE56AD3D8B222749","jianjianfengyun@126.com","http://cdn.aixifan.com/dotnet/20120923/style/image/avatar.jpg",,"0","2114-01-01 00:00:00","0","1","bc08e99e7a7367d63bae2e5c9b9cc2ee","DDwgRq","1","2","0","0","0","5030",,"1","0","0","0","0","2017-06-01 00:00:00","17321082667","1","1","1","0","0","1","0","1","0",,"0","0"
"461","ffffff","@fgbdfgg","http://cdn.aixifan.com/dotnet/20120923/style/image/avatar.jpg",,"1","2114-01-01 00:00:00","0","0","f6062185319256b9c9382f896e3c5092",,"1","2","0","0","0","5000",,"1","0","0","0","0","2000-01-01 00:00:00",,"1","1","0","0","0","0","0","1","0",,"0","0"
"462","yumen520","yunmen@163.com","http://cdn.aixifan.com/dotnet/20120923/style/image/avatar.jpg",,"1","2114-01-01 00:00:00","0","0","b00884e24fc6f1345f4ee2f4a7cde72d",,"1","2","0","0","0","5000",,"1","0","0","0","0","2000-01-01 00:00:00",,"1","1","0","0","0","0","0","1","0",,"0","0"
"463","硬果冻","yingleon@yahoo.com.cn","http://cdn.aixifan.com/dotnet/20120923/style/image/avatar.jpg",,"1","2114-01-01 00:00:00","0","0","77c9d7eeebf953e8f6594bd37199872d",,"1","2","0","0","0","5000",,"1","0","0","0","0","2000-01-01 00:00:00",,"1","1","0","0","0","0","0","1","0",,"0","0"
"464","我坏我快乐","21477501@163.com","http://cdn.aixifan.com/dotnet/20120923/style/image/avatar.jpg",,"1","2114-01-01 00:00:00","0","0","45d7268849b18e822ce6033cbbe40007","CQ3cKPeezRBSncuFUAkywVya7XCpxqO4lDdsjkNMltCMxVzik2AK3p6fhVc2b3Y15S5ABr2yWiAtUSS8UDgWPPQ4UzYOgiGZXBeTZnhLi8mwVwXGJ950JsldSsxCo5Ct","1","2","0","0","0","5000",,"1","0","0","0","0","2000-01-01 00:00:00",,"1","1","0","0","0","0","0","1","0",,"0","0"
"465","风之谷","asdfhjaf@163.com","http://cdn.aixifan.com/dotnet/20120923/style/image/avatar.jpg",,"1","2114-01-01 00:00:00","0","0","7dc2f7c3217341947bdd8ca0b738d160",,"1","2","0","0","0","5000",,"1","0","0","0","0","2000-01-01 00:00:00",,"1","1","0","0","0","0","0","1","0",,"0","0"
"466","2ero","hushitong@163.com","http://cdn.aixifan.com/dotnet/20120923/style/image/avatar.jpg",,"0","2012-02-20 00:00:00","0","1","b462f9f5fe99088520a25ae41588cfa5","2lrJIOYxVrRsb80oXfa4SkIoWzuPWnV2APWFaJMmY2K1uNCZ5Fegttw70ZlWYYCXfjh467RTtdhEfZNJPWdVwyNAGjdowroDviI3TxVcFKOKZ1USnaFwfxnccuNPzvQe","1","2","0","0","0","5165",,"1","0","0","0","0","2016-09-01 00:00:00",,"1","1","0","1","0","0","0","1","0",,"0","0"
"467","banana-R","www.sky@sina.com","http://cdn.aixifan.com/dotnet/20120923/style/image/avatar.jpg",,"1","2114-01-01 00:00:00","0","0","60cf56b5453d3713b2b3c7d70e2f6239",,"1","2","0","0","0","5000",,"1","0","0","0","0","2000-01-01 00:00:00",,"1","1","0","0","0","0","0","1","0",,"0","0"
"468","感冒999","a3257597.com@163.com","http://cdn.aixifan.com/dotnet/20120923/style/image/avatar.jpg",,"1","2114-01-01 00:00:00","0","0","45f9a28ee5545525ddc3175378872b4c",,"1","2","0","0","0","5000",,"1","0","0","0","0","2000-01-01 00:00:00",,"1","1","0","0","0","0","0","1","0",,"0","0"
"469","xiao添","419976915@qq.com","http://cdn.aixifan.com/dotnet/20120923/style/image/avatar.jpg",,"0","2111-06-03 00:00:00","0","0","96e79218965eb72c92a549dd5a330112",,"1","2","0","0","0","5000",,"1","0","0","0","0","2016-09-01 00:00:00",,"1","1","0","0","0","0","0","1","0",,"0","0"
"470","水月づ枫","magician2003@126.com","http://cdn.aixifan.com/dotnet/20120923/style/image/avatar.jpg",,"1","2114-01-01 00:00:00","0","0","a6cd3d5172505815176881699ba04750","FMqaE3tNkcM2DfIBJaz6Cn8cN4IFCgRMKM23DqnkyAzxGSDoUtiR73V17w9Q2g7pMsVfOWepq4EwKTNOqi1ER0sGIqNLtHet1RPxLunRR05oNiBiXDtlsjAdDsXFIERO","1","2","0","0","0","5003",,"1","0","0","0","0","2017-09-01 00:00:00",,"1","1","0","0","0","0","0","1","0",,"0","0"
"471","南柯一梦","324270055@qq.com","http://cdn.aixifan.com/dotnet/20120923/style/image/avatar.jpg",,"1","2114-01-01 00:00:00","0","0","cbd52caf4b2d52759a19037eaf1690af",,"1","2","0","0","0","5000",,"1","0","0","0","0","2000-01-01 00:00:00",,"1","1","0","0","0","0","0","1","0",,"0","0"
"472","第二局长","175328902@163.com","http://cdn.aixifan.com/dotnet/20120923/style/image/avatar.jpg",,"1","2114-01-01 00:00:00","0","0","6bc1352b807095a3fd1cc4dde4a45e24",,"1","2","0","0","0","5000",,"1","0","0","0","0","2000-01-01 00:00:00",,"1","1","0","0","0","0","0","1","0",,"0","0"
"473","uakojian","kila.1989@yahoo.com.cn","http://cdn.aixifan.com/dotnet/20120923/style/image/avatar.jpg",,"1","2114-01-01 00:00:00","0","0","95bf0dfc959e2e40caa7eeddf77527fe",,"1","2","0","0","0","5000",,"1","0","0","0","0","2000-01-01 00:00:00",,"1","1","0","0","0","0","0","1","0",,"0","0"
"474","啊呀呀","zheng63784747@126.com","http://cdn.aixifan.com/dotnet/20120923/style/image/avatar.jpg",,"1","2114-01-01 00:00:00","0","0","da236d7b1e6905110dda467064de523a",,"1","2","0","0","0","5000",,"1","0","0","0","0","2000-01-01 00:00:00",,"1","1","0","0","0","0","0","1","0",,"0","0"
"475","灵魂漫步","george8.9@163.com","http://cdn.aixifan.com/dotnet/20120923/style/image/avatar.jpg",,"0","2111-06-03 00:00:00","0","0","723d505516e0c197e42a6be3c0af910e",,"1","2","0","0","0","5000",,"1","0","0","0","0","2016-09-01 00:00:00",,"1","1","0","0","0","0","0","1","0",,"0","0"
"476","№轩￠轩￡","zxt_464356163","http://cdn.aixifan.com/dotnet/20120923/style/image/avatar.jpg",,"1","2114-01-01 00:00:00","0","0","cf056f75560b4f48345fc6abd5c22813",,"1","2","0","0","0","5000",,"1","0","0","0","0","2000-01-01 00:00:00",,"1","1","0","0","0","0","0","1","0",,"0","0"
"477","DM","180643575@qq.com","http://cdn.aixifan.com/dotnet/20120923/style/image/avatar.jpg",,"1","2114-01-01 00:00:00","0","0","85aa67b6adf6f7e2d770decb9375f9fc",,"1","2","0","0","0","5000",,"1","0","0","0","0","2000-01-01 00:00:00",,"1","1","0","0","0","0","0","1","0",,"0","0"
"478","骆驼","tuosiyi@163.com","http://cdn.aixifan.com/dotnet/20120923/style/image/avatar.jpg",,"0","2012-02-20 00:00:00","0","0","39bda66e7bcdf76213b9ffa39014477b",,"1","2","0","0","0","5000",,"1","0","0","0","0","2016-09-01 00:00:00",,"1","1","0","0","0","0","0","1","0",,"0","0"
"479","狂之动痴","tanhuigang@sina.com","http://cdn.aixifan.com/dotnet/20120923/style/image/avatar.jpg",,"1","2114-01-01 00:00:00","0","0","9e2af28ecaf426f60f3b399642a61b2b",,"1","2","0","0","0","5000",,"1","0","0","0","0","2000-01-01 00:00:00",,"1","1","0","0","0","0","0","1","0",,"0","0"
"480","aass","dog_lover@126.com","http://cdn.aixifan.com/dotnet/20120923/style/image/avatar.jpg",,"1","2114-01-01 00:00:00","0","0","4944c9a55c26b0ec79611128f7306b4f",,"1","2","0","0","0","5000",,"1","0","0","0","0","2000-01-01 00:00:00",,"1","1","0","0","0","0","0","1","0",,"0","0"
"481","审判者","spz397669537@qq.com","http://cdn.aixifan.com/dotnet/20120923/style/image/avatar.jpg",,"1","2114-01-01 00:00:00","0","0","f379eaf3c831b04de153469d1bec345e",,"1","2","0","0","0","5000",,"1","0","0","0","0","2000-01-01 00:00:00",,"1","1","0","0","0","0","0","1","0",,"0","0"
"482","随风-R","406706302@qq.com","http://cdn.aixifan.com/dotnet/20120923/style/image/avatar.jpg",,"1","2114-01-01 00:00:00","0","0","cfeabf5d8d4418662d18c1b7f00660e8",,"1","2","0","0","0","5000",,"1","0","0","0","0","2000-01-01 00:00:00",,"1","1","0","0","0","0","0","1","0",,"0","0"
"483","裂","note168@126.com","http://cdn.aixifan.com/dotnet/20120923/style/image/avatar.jpg",,"1","2114-01-01 00:00:00","0","0","943b1197556344604c5c5d248abc0470",,"1","2","0","0","0","5000",,"1","0","0","0","0","2000-01-01 00:00:00",,"1","1","0","0","0","0","0","1","0",,"0","0"
"484","DuDu-R","adu19921018@126.com","http://cdn.aixifan.com/dotnet/20120923/style/image/avatar.jpg",,"1","2114-01-01 00:00:00","0","0","1a901b405caf497d455d860c4bd4151b",,"1","2","0","0","0","5000",,"1","0","0","0","0","2000-01-01 00:00:00",,"1","1","0","0","0","0","0","1","0",,"0","0"
"485","alvin","alvinfeng@163.com","http://cdn.aixifan.com/dotnet/20120923/style/image/avatar.jpg",,"1","2114-01-01 00:00:00","0","0","a8a52fe4a94504d07eaea067f87b90c1",,"1","2","0","0","0","5000",,"1","0","0","0","0","2000-01-01 00:00:00",,"1","1","0","0","0","0","0","1","0",,"0","0"
"486","流云","liuyunlbl@126.com","http://cdn.aixifan.com/dotnet/20120923/style/image/avatar.jpg",,"1","2114-01-01 00:00:00","0","0","d251e813b3b4e0794783cef2835f113e",,"1","2","0","0","0","5000",,"1","0","0","0","0","2000-01-01 00:00:00",,"1","1","0","0","0","0","0","1","0",,"0","0"
"487","阿各","lizhan8882006@126.com","http://cdn.aixifan.com/dotnet/20120923/style/image/avatar.jpg",,"0","2111-06-03 00:00:00","0","0","e5dbbe8e14bbad6e965e95186e0b082d",,"1","2","0","0","0","5350",,"1","0","0","0","0","2016-09-01 00:00:00",,"1","1","0","0","0","0","0","1","0",,"0","0"
"488","骷髏い骨頭う","ABC@ABC.COM","http://cdn.aixifan.com/dotnet/20120923/style/image/avatar.jpg",,"1","2114-01-01 00:00:00","0","0","29fbf97a8d880846206f99259149c9cc",,"1","2","0","0","0","5000",,"1","0","0","0","0","2000-01-01 00:00:00",,"1","1","0","0","0","0","0","1","0",,"0","0"
"489","beckymax","max_jb@hotmail.com","http://cdn.aixifan.com/dotnet/20120923/style/image/avatar.jpg",,"0","2111-06-03 00:00:00","0","0","e0546e54ad94d8bf7ffe969d58280877",,"1","2","0","0","0","5000",,"1","0","0","0","0","2016-09-01 00:00:00",,"1","1","0","0","0","0","0","1","0",,"0","0"
"490","666666","421816640@qq.com","http://cdn.aixifan.com/dotnet/20120923/style/image/avatar.jpg",,"1","2114-01-01 00:00:00","0","0","6fe980a74b5be56fffbf7b0a6b37413d",,"1","2","0","0","0","5000",,"1","0","0","0","0","2000-01-01 00:00:00",,"1","1","0","0","0","0","0","1","0",,"0","0"
"491","liuxing ","450146283@qq.com","http://cdn.aixifan.com/dotnet/20120923/style/image/avatar.jpg",,"0","2012-02-20 00:00:00","0","0","43b9953c5641b920ef2197030ff2022c",,"1","2","0","0","0","5000",,"1","0","0","0","0","2016-09-01 00:00:00",,"1","1","0","0","0","0","0","1","0",,"0","0"
"492","迷一样","linyubing1986@126.com","http://cdn.aixifan.com/dotnet/20120923/style/image/avatar.jpg",,"1","2114-01-01 00:00:00","0","0","ad3869393984896f9b2344fdd6d7c37f",,"1","2","0","0","0","5000",,"1","0","0","0","0","2000-01-01 00:00:00",,"1","1","0","0","0","0","0","1","0",,"0","0"
"493","侦探","350664587@qq.com","http://cdn.aixifan.com/dotnet/20120923/style/image/avatar.jpg",,"1","2114-01-01 00:00:00","0","0","1c96b09a0f66835d5c372d1e4064e07e",,"1","2","0","0","0","5000",,"1","0","0","0","0","2000-01-01 00:00:00",,"1","1","0","0","0","0","0","1","0",,"0","0"
"494","豆沙包","since12345@126.com","http://cdn.aixifan.com/dotnet/20120923/style/image/avatar.jpg",,"1","2114-01-01 00:00:00","0","0","9b044c5a92d2a9a84f939d0bcb67baef",,"1","2","0","0","0","5000",,"1","0","0","0","0","2000-01-01 00:00:00",,"1","1","0","0","0","0","0","1","0",,"0","0"
"495","三财散尽huan不来","keen.com@tom.com","http://cdn.aixifan.com/dotnet/artemis/u/cms/www/201204/16182712e1wm.jpg","别把玩家逼成庄家。","0","2111-06-03 00:00:00","0","1","38099256e708ca33665398c6fe98dc86","QLEJFnJAUnwp1R2Rx9QbFLolpQs3itsj35RQgiJbN5S9vqp26s7w82yN1r0VAuQ9HhiaJUuWqpOlHOcO3vUR0GfezvT6q2q8t4FIIQWibNtPSMLLQCMQrgjkawKCqEhy","1","4","0","0","0","18683",,"1","0","166","139","3","2017-11-01 00:00:00","13920835732","1","1","1","1","1","18","0","1","0",,"0","0"
"496","丅半夜ωǒ想","zhaijiangtao159@163.com","http://cdn.aixifan.com/dotnet/20120923/style/image/avatar.jpg",,"1","2114-01-01 00:00:00","0","0","1571b37c656c04aaafbb776736bc96ba",,"1","2","0","0","0","5000",,"1","0","0","0","0","2000-01-01 00:00:00",,"1","1","0","0","0","0","0","1","0",,"0","0"
"497","han","www.asd@qwe.com","http://cdn.aixifan.com/dotnet/20120923/style/image/avatar.jpg",,"1","2114-01-01 00:00:00","0","0","8318ed428519a924ad17b0d892985a7e",,"1","2","0","0","0","5000",,"1","0","0","0","0","2000-01-01 00:00:00",,"1","1","0","0","0","0","0","1","0",,"0","0"
"498","白雨","xxrhy@163.com","http://cdn.aixifan.com/dotnet/20120923/style/image/avatar.jpg",,"1","2114-01-01 00:00:00","0","0","9aa8489b8b3b2fd75f7da859ac545424",,"1","2","0","0","0","5000",,"1","0","0","0","0","2000-01-01 00:00:00",,"1","1","0","0","0","0","0","1","0",,"0","0"
"499","DEATH.NOTE.","lukongce@163.com","http://cdn.aixifan.com/dotnet/20120923/style/image/avatar.jpg",,"0","2012-02-20 00:00:00","0","0","3a12b376bb8f9f9cc7dc0566525b85a9",,"1","2","0","0","0","5003",,"1","0","0","0","0","2016-09-01 00:00:00",,"1","1","0","0","0","0","0","1","0",,"0","0"
"500","温柔狼","jintwpeini@163.com","http://cdn.aixifan.com/dotnet/20120923/style/image/avatar.jpg",,"1","2114-01-01 00:00:00","0","0","96a71c89fc50a062fea0bff2f13d5b68",,"1","2","0","0","0","5000",,"1","0","0","0","0","2000-01-01 00:00:00",,"1","1","0","0","0","0","0","1","0",,"0","0"
"501","吖糖","zx159@999.COM","http://cdn.aixifan.com/dotnet/20120923/style/image/avatar.jpg",,"1","2114-01-01 00:00:00","0","0","4f3158bad2a545a5efa472590d7a7c6b",,"1","2","0","0","0","5000",,"1","1","0","0","0","2000-01-01 00:00:00",,"1","1","0","0","0","0","0","1","0",,"0","0"
"502","3k","807415035@qq.com","http://cdn.aixifan.com/dotnet/20120923/style/image/avatar.jpg",,"1","2114-01-01 00:00:00","0","1","14355539d1be2d72a7c8fbbd05486e0a",,"1","2","0","0","0","5041",,"1","0","0","0","0","2017-06-01 00:00:00",,"1","1","0","0","0","0","0","1","0",,"0","0"
"503","一夜Ｎ次狼","zjl9498@126.com","http://cdn.aixifan.com/dotnet/20120923/style/image/avatar.jpg",,"1","2114-01-01 00:00:00","0","0","11ac7c07e28659835baee888a8ce997b",,"1","2","0","0","0","5000",,"1","0","0","0","0","2000-01-01 00:00:00",,"1","1","0","0","0","0","0","1","0",,"0","0"
"504","zzc-R","aaaaabbbbbab@163.com","http://cdn.aixifan.com/dotnet/20120923/style/image/avatar.jpg",,"1","2114-01-01 00:00:00","0","0","b3b11bfe22262111b4552704227e168d",,"1","2","0","0","0","5000",,"1","0","0","0","0","2000-01-01 00:00:00",,"1","1","0","0","0","0","0","1","0",,"0","0"
"505","Angel","wanmin478@163.com","http://cdn.aixifan.com/dotnet/20120923/style/image/avatar.jpg",,"1","2114-01-01 00:00:00","0","0","741c1ee34215618af4332bdb17fbddb9",,"1","2","0","0","0","5000",,"1","0","0","0","0","2000-01-01 00:00:00",,"1","1","0","0","0","0","0","1","0",,"0","0"
"506","爱吃牛奶粥","leiqiu514@yahoo.com.cn","http://cdn.aixifan.com/dotnet/20120923/style/image/avatar.jpg",,"1","2114-01-01 00:00:00","0","0","8e41d57f31ac27c935797c5764ba2ba3",,"1","2","0","0","0","5000",,"1","0","0","0","0","2000-01-01 00:00:00",,"1","1","0","0","0","0","0","1","0",,"0","0"
"507","鸣滝","adam_401@163.com","http://cdn.aixifan.com/dotnet/20120923/style/image/avatar.jpg",,"1","2114-01-01 00:00:00","0","0","06f62671154849a9532212ebff941fde",,"1","2","0","0","0","5000",,"1","0","0","0","0","2000-01-01 00:00:00",,"1","1","0","0","0","0","0","1","0",,"0","0"
